48.716537,29,linear,2,relu,15.565690
53.995610,29,linear,3,relu,14.731036
55.421857,29,linear,4,relu,15.843330
51.632242,29,linear,5,relu,15.616134
56.122724,29,linear,6,relu,15.991372
53.393400,29,linear,7,relu,15.830549
56.037486,29,linear,8,relu,15.247526
56.845318,29,linear,9,relu,15.517060
54.044099,29,linear,10,relu,14.854951
53.073199,29,linear,11,relu,15.164882
53.803464,29,linear,12,relu,15.617152
50.982668,29,linear,13,relu,16.019428
54.650515,29,linear,14,relu,15.546926
46.949642,29,linear,15,relu,14.923801
55.883075,29,linear,16,relu,16.603589
56.517884,29,linear,17,relu,17.218726
54.519665,29,linear,18,relu,15.699237
48.712952,29,linear,19,relu,15.875857
56.653744,29,linear,20,relu,15.246717
53.963765,29,linear,21,relu,16.275008
47.425539,29,linear,22,relu,15.915938
49.515827,29,linear,23,relu,15.605334
54.452248,29,linear,24,relu,15.691573
55.533886,29,linear,25,relu,15.475857
54.820902,29,linear,26,relu,15.182933
54.812154,29,linear,27,relu,15.472712
52.632141,29,linear,28,relu,15.329306
55.096903,29,linear,29,relu,16.257170
51.932426,29,linear,30,relu,16.169826
54.162029,29,linear,31,relu,16.441491
55.889451,29,linear,32,relu,16.089885
56.160673,29,linear,33,relu,16.369558
53.938161,29,linear,34,relu,15.775761
55.613680,29,linear,35,relu,16.203550
51.154590,29,linear,36,relu,15.942701
55.761535,29,linear,37,relu,15.916749
52.320493,29,linear,38,relu,17.654578
52.858857,29,linear,39,relu,16.715057
52.887070,29,linear,40,relu,16.062771
51.700450,29,linear,41,relu,16.754385
54.211872,29,linear,42,relu,17.458434
55.838952,29,linear,43,relu,15.823961
56.386984,29,linear,44,relu,16.184985
49.058899,29,linear,45,relu,17.975457
55.082576,29,linear,46,relu,16.543420
53.589108,29,linear,47,relu,17.238964
54.147248,29,linear,48,relu,15.859718
54.824639,29,linear,49,relu,16.195181
53.859371,29,linear,50,relu,17.439408
51.674841,29,linear,51,relu,16.862937
53.672219,29,linear,52,relu,16.385129
55.119093,29,linear,53,relu,15.969263
53.917158,29,linear,54,relu,17.452648
54.810107,29,linear,55,relu,17.767592
54.798999,29,linear,56,relu,17.079553
53.012795,29,linear,57,relu,16.473269
52.022834,29,linear,58,relu,16.646303
51.088508,29,linear,59,relu,18.080261
52.508509,29,linear,60,relu,17.014226
43.525306,29,linear,61,relu,17.800440
56.217228,29,linear,62,relu,17.206102
49.369189,29,linear,63,relu,18.086945
54.803861,29,linear,64,relu,17.558529
56.352042,29,linear,65,relu,17.763548
54.760110,29,linear,66,relu,17.935670
53.800641,29,linear,67,relu,17.415907
50.729780,29,linear,68,relu,17.243920
49.474228,29,linear,69,relu,17.135722
55.440290,29,linear,70,relu,16.981351
52.907518,29,linear,71,relu,17.341430
52.567002,29,linear,72,relu,17.148626
55.909532,29,linear,73,relu,17.530363
54.818297,29,linear,74,relu,17.024217
51.980044,29,linear,75,relu,16.995942
54.071891,29,linear,76,relu,17.044493
54.034565,29,linear,77,relu,17.260877
54.186046,29,linear,78,relu,16.968273
55.298168,29,linear,79,relu,17.405277
55.219229,29,linear,80,relu,17.100950
53.683012,29,linear,81,relu,17.204705
49.392392,29,linear,82,relu,16.894180
53.298170,29,linear,83,relu,16.861217
53.046555,29,linear,84,relu,17.044427
51.818480,29,linear,85,relu,16.811202
52.936091,29,linear,86,relu,17.688400
52.629039,29,linear,87,relu,16.621063
54.822288,29,linear,88,relu,16.641899
53.161925,29,linear,89,relu,16.766536
54.278294,29,linear,90,relu,16.522842
54.547822,29,linear,91,relu,16.852935
54.056211,29,linear,92,relu,16.670484
48.258948,29,linear,93,relu,16.656635
51.840875,29,linear,94,relu,16.892001
53.004359,29,linear,95,relu,16.886489
53.310506,29,linear,96,relu,16.693374
57.324631,29,linear,97,relu,16.859596
52.337421,29,linear,98,relu,16.664999
55.728087,29,linear,99,relu,16.846826
54.385453,29,linear,100,relu,16.809369
53.033748,29,linear,101,relu,17.129060
55.378393,29,linear,102,relu,17.026290
56.559461,29,linear,103,relu,17.080570
52.742719,29,linear,104,relu,16.951409
55.560352,29,linear,105,relu,16.893937
54.181306,29,linear,106,relu,17.092066
48.936690,29,linear,107,relu,17.246707
55.321480,29,linear,108,relu,17.064063
53.889613,29,linear,109,relu,17.305469
54.737291,29,linear,110,relu,17.204516
53.847343,29,linear,111,relu,17.576433
48.388568,29,linear,112,relu,17.371174
55.502566,29,linear,113,relu,17.126764
54.224066,29,linear,114,relu,17.390009
54.476994,29,linear,115,relu,17.357635
56.222492,29,linear,116,relu,17.396829
50.160315,29,linear,117,relu,17.696485
55.293534,29,linear,118,relu,17.486766
53.884555,29,linear,119,relu,17.583805
54.953078,29,linear,120,relu,17.437615
49.375621,29,linear,121,relu,17.621256
56.196201,29,linear,122,relu,17.582069
52.732805,29,linear,123,relu,17.523615
53.808628,29,linear,124,relu,17.641308
55.144007,29,linear,125,relu,17.639618
51.451487,29,linear,126,relu,17.930199
54.250855,29,linear,127,relu,17.892600
47.121103,29,linear,128,relu,17.637398
49.041331,29,linear,129,relu,17.693626
51.631390,29,linear,130,relu,17.331951
57.107450,29,linear,131,relu,17.418075
52.724419,29,linear,132,relu,17.471788
55.923432,29,linear,133,relu,17.518201
54.628899,29,linear,134,relu,17.732139
52.226731,29,linear,135,relu,17.684793
55.211329,29,linear,136,relu,17.437076
50.037064,29,linear,137,relu,17.502109
54.891457,29,linear,138,relu,17.336974
48.591512,29,linear,139,relu,17.499455
48.531403,29,linear,140,relu,17.264591
56.074004,29,linear,141,relu,17.265820
49.779190,29,linear,142,relu,17.145701
49.385909,29,linear,143,relu,16.968519
55.798166,29,linear,144,relu,16.914503
54.556804,29,linear,145,relu,16.739738
53.456859,29,linear,146,relu,16.914502
56.814947,29,linear,147,relu,17.105448
54.821431,29,linear,148,relu,16.883533
53.643300,29,linear,149,relu,17.182434
55.392562,29,linear,150,relu,17.056764
55.704169,29,linear,151,relu,17.296929
53.440541,29,linear,152,relu,17.323820
53.892248,29,linear,153,relu,17.568365
52.746084,29,linear,154,relu,17.739453
47.406280,29,linear,155,relu,17.663709
50.030085,29,linear,156,relu,17.971315
54.021985,29,linear,157,relu,17.792212
54.461351,29,linear,158,relu,17.685737
50.036283,29,linear,159,relu,17.828734
53.195917,29,linear,160,relu,17.632189
55.862938,29,linear,161,relu,17.850761
54.205973,29,linear,162,relu,17.832709
54.902195,29,linear,163,relu,17.834660
48.575879,29,linear,164,relu,17.997667
53.075000,29,linear,165,relu,17.752643
56.557884,29,linear,166,relu,17.957757
51.720426,29,linear,167,relu,17.770240
51.890761,29,linear,168,relu,17.961700
55.015732,29,linear,169,relu,17.930474
48.965289,29,linear,170,relu,17.924629
48.027940,29,linear,171,relu,18.214206
54.821382,29,linear,172,relu,18.100503
50.966741,29,linear,173,relu,18.101256
53.273330,29,linear,174,relu,18.119305
54.339637,29,linear,175,relu,17.915058
48.433341,29,linear,176,relu,17.980388
52.464225,29,linear,177,relu,17.888263
54.662356,29,linear,178,relu,17.778962
55.752903,29,linear,179,relu,17.969163
56.195282,29,linear,180,relu,18.022310
53.522306,29,linear,181,relu,18.022684
54.426659,29,linear,182,relu,18.121126
52.926464,29,linear,183,relu,18.030559
54.120857,29,linear,184,relu,18.219740
53.355527,29,linear,185,relu,18.399655
53.138502,29,linear,186,relu,19.866669
53.645045,29,linear,187,relu,19.703345
50.718499,29,linear,188,relu,19.799980
54.729394,29,linear,189,relu,19.767649
54.605769,29,linear,190,relu,19.721869
48.966928,29,linear,191,relu,19.811356
55.049352,29,linear,192,relu,19.704829
54.109045,29,linear,193,relu,19.686367
47.810334,29,linear,194,relu,19.819518
52.936018,29,linear,195,relu,19.796390
47.964188,29,linear,196,relu,20.257981
52.135288,29,linear,197,relu,19.799246
55.233922,29,linear,198,relu,19.790068
54.399055,29,linear,199,relu,20.105145
46.298336,29,linear,200,relu,19.904255
55.337596,29,linear,2,tanh,14.311655
50.680391,29,linear,3,tanh,14.408883
55.821389,29,linear,4,tanh,14.213754
53.876868,29,linear,5,tanh,14.187732
49.969339,29,linear,6,tanh,14.529921
50.639392,29,linear,7,tanh,14.281359
50.388223,29,linear,8,tanh,14.056919
54.849525,29,linear,9,tanh,14.369647
50.914640,29,linear,10,tanh,15.630718
49.763831,29,linear,11,tanh,14.951343
53.540246,29,linear,12,tanh,14.406733
50.221724,29,linear,13,tanh,14.202279
46.350027,29,linear,14,tanh,14.078132
52.407484,29,linear,15,tanh,14.431388
51.604196,29,linear,16,tanh,14.626327
54.900260,29,linear,17,tanh,15.338447
54.394581,29,linear,18,tanh,14.912561
54.919489,29,linear,19,tanh,14.396091
55.508151,29,linear,20,tanh,15.540389
52.440740,29,linear,21,tanh,14.433752
55.034052,29,linear,22,tanh,14.385241
53.602946,29,linear,23,tanh,14.588051
52.236455,29,linear,24,tanh,14.663522
54.531925,29,linear,25,tanh,14.822514
49.394169,29,linear,26,tanh,14.885411
54.495714,29,linear,27,tanh,14.522370
51.555717,29,linear,28,tanh,14.808253
47.202352,29,linear,29,tanh,14.757413
55.655562,29,linear,30,tanh,15.095273
49.464021,29,linear,31,tanh,14.922896
50.087842,29,linear,32,tanh,15.196608
55.653465,29,linear,33,tanh,14.790264
47.829991,29,linear,34,tanh,14.751272
54.645359,29,linear,35,tanh,15.184553
56.027584,29,linear,36,tanh,15.118492
53.071290,29,linear,37,tanh,15.040044
54.124752,29,linear,38,tanh,15.175260
47.091642,29,linear,39,tanh,15.177838
54.626065,29,linear,40,tanh,15.253690
53.138843,29,linear,41,tanh,15.375448
53.133986,29,linear,42,tanh,16.185720
52.104978,29,linear,43,tanh,15.884140
55.653687,29,linear,44,tanh,15.525436
55.765194,29,linear,45,tanh,15.398015
55.815874,29,linear,46,tanh,15.303035
53.203132,29,linear,47,tanh,15.620681
55.186677,29,linear,48,tanh,15.668714
52.822790,29,linear,49,tanh,15.364653
53.766272,29,linear,50,tanh,15.809277
54.632370,29,linear,51,tanh,15.509070
57.143784,29,linear,52,tanh,15.720450
52.410653,29,linear,53,tanh,15.357535
55.059586,29,linear,54,tanh,16.319111
49.566504,29,linear,55,tanh,15.811989
55.329727,29,linear,56,tanh,15.764186
53.850935,29,linear,57,tanh,15.681346
52.517748,29,linear,58,tanh,15.140344
56.148039,29,linear,59,tanh,15.406357
55.048477,29,linear,60,tanh,15.272214
52.738432,29,linear,61,tanh,15.593605
56.054628,29,linear,62,tanh,15.416511
55.817399,29,linear,63,tanh,15.793505
54.338592,29,linear,64,tanh,15.533114
53.766129,29,linear,65,tanh,15.574121
54.789182,29,linear,66,tanh,15.776183
53.792596,29,linear,67,tanh,16.221755
48.196439,29,linear,68,tanh,16.209867
52.236615,29,linear,69,tanh,16.074019
53.750105,29,linear,70,tanh,16.445041
55.466099,29,linear,71,tanh,17.235485
54.622250,29,linear,72,tanh,16.439042
54.794356,29,linear,73,tanh,16.108290
51.788118,29,linear,74,tanh,16.579588
54.691303,29,linear,75,tanh,16.171847
53.711635,29,linear,76,tanh,16.440036
48.687751,29,linear,77,tanh,16.036906
43.776787,29,linear,78,tanh,16.444080
48.047280,29,linear,79,tanh,16.194533
49.464203,29,linear,80,tanh,16.449940
48.743105,29,linear,81,tanh,16.466527
50.119291,29,linear,82,tanh,16.426879
55.060572,29,linear,83,tanh,16.319966
54.654346,29,linear,84,tanh,16.205414
51.820337,29,linear,85,tanh,16.199172
48.683372,29,linear,86,tanh,16.355174
51.498426,29,linear,87,tanh,16.309619
55.305004,29,linear,88,tanh,16.334983
52.908331,29,linear,89,tanh,17.239956
47.187578,29,linear,90,tanh,17.443090
52.938277,29,linear,91,tanh,16.919646
54.394363,29,linear,92,tanh,16.265928
53.055637,29,linear,93,tanh,16.456152
55.611027,29,linear,94,tanh,16.082876
53.218873,29,linear,95,tanh,15.934556
47.347119,29,linear,96,tanh,16.690058
56.338400,29,linear,97,tanh,15.706287
55.624771,29,linear,98,tanh,16.445168
54.175210,29,linear,99,tanh,17.582162
54.319472,29,linear,100,tanh,16.157613
55.202659,29,linear,101,tanh,17.881806
52.248724,29,linear,102,tanh,16.074118
53.485102,29,linear,103,tanh,16.376198
47.616843,29,linear,104,tanh,16.318880
53.090554,29,linear,105,tanh,16.605298
53.330004,29,linear,106,tanh,18.161082
50.564453,29,linear,107,tanh,17.557151
55.091310,29,linear,108,tanh,17.241168
54.277361,29,linear,109,tanh,16.900719
45.815842,29,linear,110,tanh,17.868616
55.990245,29,linear,111,tanh,17.280115
54.843641,29,linear,112,tanh,17.343702
56.035612,29,linear,113,tanh,17.628978
52.458988,29,linear,114,tanh,19.018248
47.510488,29,linear,115,tanh,17.570073
53.216078,29,linear,116,tanh,17.032768
54.348240,29,linear,117,tanh,17.103987
49.719903,29,linear,118,tanh,17.939776
54.818498,29,linear,119,tanh,18.934444
55.556441,29,linear,120,tanh,17.371913
48.966372,29,linear,121,tanh,16.902712
54.488134,29,linear,122,tanh,16.983672
53.111083,29,linear,123,tanh,16.644721
48.046174,29,linear,124,tanh,18.228896
50.100578,29,linear,125,tanh,16.542458
54.422678,29,linear,126,tanh,16.530197
47.901801,29,linear,127,tanh,16.526738
55.031206,29,linear,128,tanh,17.266286
49.048006,29,linear,129,tanh,18.294191
48.006331,29,linear,130,tanh,17.208974
55.743197,29,linear,131,tanh,19.313266
54.335289,29,linear,132,tanh,17.566600
52.167132,29,linear,133,tanh,17.713488
52.171452,29,linear,134,tanh,16.832648
55.397788,29,linear,135,tanh,16.774028
54.883118,29,linear,136,tanh,16.749246
43.692288,29,linear,137,tanh,16.516298
52.799029,29,linear,138,tanh,16.586119
53.205422,29,linear,139,tanh,16.255521
55.352891,29,linear,140,tanh,16.216260
54.754219,29,linear,141,tanh,16.286806
56.260544,29,linear,142,tanh,16.446183
46.170956,29,linear,143,tanh,16.388445
55.100389,29,linear,144,tanh,16.565491
55.876118,29,linear,145,tanh,16.580355
48.064724,29,linear,146,tanh,16.679372
51.613377,29,linear,147,tanh,16.717056
54.700313,29,linear,148,tanh,16.785643
53.491884,29,linear,149,tanh,16.939889
48.613603,29,linear,150,tanh,16.946927
47.403316,29,linear,151,tanh,17.857447
54.478024,29,linear,152,tanh,17.976580
54.686392,29,linear,153,tanh,17.460123
56.062192,29,linear,154,tanh,17.470020
52.174373,29,linear,155,tanh,17.328322
55.512689,29,linear,156,tanh,17.848237
52.372009,29,linear,157,tanh,18.529600
55.069987,29,linear,158,tanh,17.546678
54.262216,29,linear,159,tanh,18.223008
54.056113,29,linear,160,tanh,17.354209
53.954198,29,linear,161,tanh,17.883846
51.575624,29,linear,162,tanh,18.864754
51.137331,29,linear,163,tanh,20.626393
53.052863,29,linear,164,tanh,17.611236
55.634010,29,linear,165,tanh,17.975886
55.905832,29,linear,166,tanh,17.593954
55.351524,29,linear,167,tanh,18.404676
54.124487,29,linear,168,tanh,18.041840
54.631950,29,linear,169,tanh,17.776098
48.949293,29,linear,170,tanh,18.118419
55.590779,29,linear,171,tanh,19.478647
45.849005,29,linear,172,tanh,19.113034
56.300332,29,linear,173,tanh,18.188822
49.603874,29,linear,174,tanh,18.525868
55.517333,29,linear,175,tanh,19.682453
51.277916,29,linear,176,tanh,18.594377
51.798422,29,linear,177,tanh,18.743759
53.981203,29,linear,178,tanh,19.112409
54.748709,29,linear,179,tanh,19.644079
48.674412,29,linear,180,tanh,19.525427
55.986853,29,linear,181,tanh,18.971299
54.827312,29,linear,182,tanh,19.080129
53.803805,29,linear,183,tanh,18.443528
55.184241,29,linear,184,tanh,22.992374
49.368522,29,linear,185,tanh,20.620808
52.930287,29,linear,186,tanh,19.600902
51.734292,29,linear,187,tanh,28.808975
45.860741,29,linear,188,tanh,24.257168
46.953486,29,linear,189,tanh,24.695362
54.176948,29,linear,190,tanh,25.454313
50.179584,29,linear,191,tanh,20.549948
54.612004,29,linear,192,tanh,19.414288
51.616633,29,linear,193,tanh,20.019157
53.795633,29,linear,194,tanh,19.593221
54.500617,29,linear,195,tanh,20.497390
53.144988,29,linear,196,tanh,19.746306
55.546533,29,linear,197,tanh,20.157076
53.826048,29,linear,198,tanh,19.694474
50.663861,29,linear,199,tanh,19.949996
50.372772,29,linear,200,tanh,20.162411
53.494372,29,linear,2,sigmoid,15.097626
46.732440,29,linear,3,sigmoid,15.532370
56.158147,29,linear,4,sigmoid,15.591908
54.533737,29,linear,5,sigmoid,16.011003
55.227212,29,linear,6,sigmoid,15.118075
54.639686,29,linear,7,sigmoid,14.605975
53.135816,29,linear,8,sigmoid,14.133395
51.515187,29,linear,9,sigmoid,14.526373
55.134076,29,linear,10,sigmoid,14.226444
52.027391,29,linear,11,sigmoid,14.866239
54.955205,29,linear,12,sigmoid,14.133290
57.206624,29,linear,13,sigmoid,14.204730
55.376582,29,linear,14,sigmoid,14.655283
56.905129,29,linear,15,sigmoid,14.543916
53.018104,29,linear,16,sigmoid,15.150188
52.751268,29,linear,17,sigmoid,14.889410
55.454972,29,linear,18,sigmoid,15.792828
53.066536,29,linear,19,sigmoid,16.270034
52.307879,29,linear,20,sigmoid,15.928190
51.585348,29,linear,21,sigmoid,15.962171
48.741523,29,linear,22,sigmoid,17.054910
55.691046,29,linear,23,sigmoid,16.103710
55.159579,29,linear,24,sigmoid,15.876097
54.687486,29,linear,25,sigmoid,16.295321
52.213840,29,linear,26,sigmoid,18.096592
49.879953,29,linear,27,sigmoid,17.512717
51.229173,29,linear,28,sigmoid,15.771530
53.002813,29,linear,29,sigmoid,15.168679
51.884013,29,linear,30,sigmoid,15.221831
54.569034,29,linear,31,sigmoid,14.526696
52.917453,29,linear,32,sigmoid,14.641837
51.443086,29,linear,33,sigmoid,14.193461
49.951652,29,linear,34,sigmoid,14.431587
51.768431,29,linear,35,sigmoid,14.565374
53.597816,29,linear,36,sigmoid,14.217729
54.978260,29,linear,37,sigmoid,14.742015
52.487213,29,linear,38,sigmoid,14.362437
52.921146,29,linear,39,sigmoid,14.801239
53.098476,29,linear,40,sigmoid,14.575329
53.776885,29,linear,41,sigmoid,14.777093
53.052493,29,linear,42,sigmoid,14.765506
54.805833,29,linear,43,sigmoid,15.078845
54.195957,29,linear,44,sigmoid,15.127442
55.569406,29,linear,45,sigmoid,15.107155
55.640727,29,linear,46,sigmoid,15.113831
53.727570,29,linear,47,sigmoid,14.982631
53.765821,29,linear,48,sigmoid,15.013087
45.438249,29,linear,49,sigmoid,15.090472
53.978433,29,linear,50,sigmoid,15.347462
51.977453,29,linear,51,sigmoid,15.170734
56.152401,29,linear,52,sigmoid,15.244353
55.021746,29,linear,53,sigmoid,15.106978
54.075488,29,linear,54,sigmoid,15.312391
54.682328,29,linear,55,sigmoid,15.042444
49.347976,29,linear,56,sigmoid,15.371145
52.387854,29,linear,57,sigmoid,15.130849
54.180571,29,linear,58,sigmoid,15.287376
56.081657,29,linear,59,sigmoid,15.526902
54.664222,29,linear,60,sigmoid,15.088630
46.061911,29,linear,61,sigmoid,15.421940
52.510835,29,linear,62,sigmoid,15.119684
49.562449,29,linear,63,sigmoid,15.467578
51.632100,29,linear,64,sigmoid,15.181447
54.804243,29,linear,65,sigmoid,15.418103
54.346529,29,linear,66,sigmoid,15.324118
54.326745,29,linear,67,sigmoid,15.546234
55.874707,29,linear,68,sigmoid,15.602923
55.519806,29,linear,69,sigmoid,15.672949
52.194382,29,linear,70,sigmoid,15.901549
54.248316,29,linear,71,sigmoid,15.404306
56.797897,29,linear,72,sigmoid,15.494241
54.805803,29,linear,73,sigmoid,15.502511
46.219776,29,linear,74,sigmoid,15.596160
49.402024,29,linear,75,sigmoid,15.630563
46.584633,29,linear,76,sigmoid,15.770537
53.020771,29,linear,77,sigmoid,15.719619
48.885269,29,linear,78,sigmoid,15.660213
53.645456,29,linear,79,sigmoid,15.797036
52.981143,29,linear,80,sigmoid,15.693346
52.613814,29,linear,81,sigmoid,15.688209
51.235641,29,linear,82,sigmoid,15.609871
56.325594,29,linear,83,sigmoid,15.614742
51.672948,29,linear,84,sigmoid,15.946066
49.585677,29,linear,85,sigmoid,15.663059
54.123993,29,linear,86,sigmoid,16.110031
53.664095,29,linear,87,sigmoid,15.988246
52.470913,29,linear,88,sigmoid,15.653392
54.479476,29,linear,89,sigmoid,16.178960
51.130035,29,linear,90,sigmoid,15.651822
48.336881,29,linear,91,sigmoid,15.845372
54.717627,29,linear,92,sigmoid,15.811590
54.618838,29,linear,93,sigmoid,15.703394
51.610138,29,linear,94,sigmoid,15.527573
53.812637,29,linear,95,sigmoid,15.815390
55.011811,29,linear,96,sigmoid,15.615695
53.613185,29,linear,97,sigmoid,15.606538
46.781259,29,linear,98,sigmoid,16.007056
53.278004,29,linear,99,sigmoid,15.713179
56.041310,29,linear,100,sigmoid,15.807941
53.939318,29,linear,101,sigmoid,15.874558
55.141538,29,linear,102,sigmoid,15.713218
55.015930,29,linear,103,sigmoid,15.843089
55.411070,29,linear,104,sigmoid,15.852017
55.316038,29,linear,105,sigmoid,15.794716
54.213700,29,linear,106,sigmoid,15.931034
52.669996,29,linear,107,sigmoid,16.165769
55.704611,29,linear,108,sigmoid,16.014713
54.601652,29,linear,109,sigmoid,16.074518
48.990579,29,linear,110,sigmoid,16.092081
53.870410,29,linear,111,sigmoid,16.376127
52.310004,29,linear,112,sigmoid,16.385385
53.887002,29,linear,113,sigmoid,16.372471
52.340300,29,linear,114,sigmoid,16.747485
52.927047,29,linear,115,sigmoid,16.870505
53.240425,29,linear,116,sigmoid,16.643134
52.716888,29,linear,117,sigmoid,16.407406
48.881070,29,linear,118,sigmoid,16.402099
49.626619,29,linear,119,sigmoid,16.528799
49.686178,29,linear,120,sigmoid,18.302733
48.074614,29,linear,121,sigmoid,15.773348
54.330313,29,linear,122,sigmoid,15.950056
51.103282,29,linear,123,sigmoid,16.333304
49.414196,29,linear,124,sigmoid,16.087079
49.231130,29,linear,125,sigmoid,15.829544
56.484739,29,linear,126,sigmoid,15.656963
52.044701,29,linear,127,sigmoid,15.834494
55.081144,29,linear,128,sigmoid,16.266072
55.364860,29,linear,129,sigmoid,16.226678
52.314457,29,linear,130,sigmoid,16.168746
55.038236,29,linear,131,sigmoid,16.576309
52.346261,29,linear,132,sigmoid,16.802776
53.075639,29,linear,133,sigmoid,16.978542
48.361674,29,linear,134,sigmoid,16.792921
53.636112,29,linear,135,sigmoid,16.647976
49.660025,29,linear,136,sigmoid,16.535664
55.632821,29,linear,137,sigmoid,16.409772
53.456611,29,linear,138,sigmoid,16.875342
50.769697,29,linear,139,sigmoid,17.153575
55.074069,29,linear,140,sigmoid,17.022552
55.104233,29,linear,141,sigmoid,17.025810
54.496755,29,linear,142,sigmoid,16.809054
54.937560,29,linear,143,sigmoid,16.706774
53.216051,29,linear,144,sigmoid,16.429743
51.637009,29,linear,145,sigmoid,16.151814
56.333482,29,linear,146,sigmoid,16.208117
53.264345,29,linear,147,sigmoid,16.774402
55.524725,29,linear,148,sigmoid,16.934170
51.254172,29,linear,149,sigmoid,17.077499
56.700394,29,linear,150,sigmoid,17.322251
48.639250,29,linear,151,sigmoid,17.116004
53.744176,29,linear,152,sigmoid,17.062864
48.180043,29,linear,153,sigmoid,17.166367
54.550383,29,linear,154,sigmoid,17.551253
50.384414,29,linear,155,sigmoid,17.516257
48.056822,29,linear,156,sigmoid,19.111977
46.026017,29,linear,157,sigmoid,18.406276
49.198789,29,linear,158,sigmoid,18.022256
48.389323,29,linear,159,sigmoid,17.868181
54.028832,29,linear,160,sigmoid,18.386224
52.790222,29,linear,161,sigmoid,18.288986
53.093966,29,linear,162,sigmoid,17.879370
54.584942,29,linear,163,sigmoid,18.501597
55.145304,29,linear,164,sigmoid,18.499910
56.803633,29,linear,165,sigmoid,18.454037
46.705520,29,linear,166,sigmoid,18.415514
54.034034,29,linear,167,sigmoid,17.629982
55.162202,29,linear,168,sigmoid,18.261243
53.742274,29,linear,169,sigmoid,18.520333
49.102312,29,linear,170,sigmoid,18.383850
53.617936,29,linear,171,sigmoid,18.557396
55.246767,29,linear,172,sigmoid,18.121905
53.786367,29,linear,173,sigmoid,18.314566
56.392278,29,linear,174,sigmoid,18.239518
55.975373,29,linear,175,sigmoid,18.161537
54.133397,29,linear,176,sigmoid,18.289974
55.743682,29,linear,177,sigmoid,18.633682
48.660096,29,linear,178,sigmoid,19.105893
54.476432,29,linear,179,sigmoid,18.846352
54.471450,29,linear,180,sigmoid,18.271171
53.933014,29,linear,181,sigmoid,18.682942
55.297887,29,linear,182,sigmoid,19.023734
55.133751,29,linear,183,sigmoid,18.980932
53.278882,29,linear,184,sigmoid,18.579437
52.698257,29,linear,185,sigmoid,19.036606
54.266083,29,linear,186,sigmoid,18.714298
56.667534,29,linear,187,sigmoid,18.737393
55.578432,29,linear,188,sigmoid,19.587186
55.623011,29,linear,189,sigmoid,18.671104
54.480149,29,linear,190,sigmoid,19.007959
56.757942,29,linear,191,sigmoid,18.695943
46.802466,29,linear,192,sigmoid,18.981847
53.931558,29,linear,193,sigmoid,19.035155
49.013136,29,linear,194,sigmoid,18.798659
54.567508,29,linear,195,sigmoid,19.081598
48.719135,29,linear,196,sigmoid,18.514011
48.341542,29,linear,197,sigmoid,20.307814
47.467593,29,linear,198,sigmoid,20.543868
54.021901,29,linear,199,sigmoid,19.931862
54.915390,29,linear,200,sigmoid,18.730425
50.255042,29,linear,2,hard_sigmoid,15.570511
54.870374,29,linear,3,hard_sigmoid,15.909890
56.370402,29,linear,4,hard_sigmoid,15.814050
44.736213,29,linear,5,hard_sigmoid,16.014111
46.600932,29,linear,6,hard_sigmoid,15.776881
54.445454,29,linear,7,hard_sigmoid,15.994849
46.555846,29,linear,8,hard_sigmoid,16.050746
55.066504,29,linear,9,hard_sigmoid,15.987143
52.827597,29,linear,10,hard_sigmoid,16.097703
47.538197,29,linear,11,hard_sigmoid,17.322585
55.949735,29,linear,12,hard_sigmoid,16.180183
53.826274,29,linear,13,hard_sigmoid,15.770671
48.238985,29,linear,14,hard_sigmoid,16.231334
55.647414,29,linear,15,hard_sigmoid,16.090900
52.237237,29,linear,16,hard_sigmoid,16.183878
54.342936,29,linear,17,hard_sigmoid,15.787103
54.415977,29,linear,18,hard_sigmoid,16.505183
48.445903,29,linear,19,hard_sigmoid,16.357295
56.798072,29,linear,20,hard_sigmoid,16.386269
54.258833,29,linear,21,hard_sigmoid,16.353098
45.815044,29,linear,22,hard_sigmoid,16.405458
46.529449,29,linear,23,hard_sigmoid,16.401272
54.736488,29,linear,24,hard_sigmoid,16.805586
54.791125,29,linear,25,hard_sigmoid,15.860470
53.671839,29,linear,26,hard_sigmoid,15.742173
55.379179,29,linear,27,hard_sigmoid,16.524064
52.848316,29,linear,28,hard_sigmoid,16.142106
54.883393,29,linear,29,hard_sigmoid,15.994697
50.214852,29,linear,30,hard_sigmoid,15.624087
47.102159,29,linear,31,hard_sigmoid,16.262600
53.795224,29,linear,32,hard_sigmoid,16.272891
55.038848,29,linear,33,hard_sigmoid,16.330487
53.081107,29,linear,34,hard_sigmoid,16.599620
53.334017,29,linear,35,hard_sigmoid,15.916268
53.019559,29,linear,36,hard_sigmoid,15.823496
53.169229,29,linear,37,hard_sigmoid,15.861997
54.980071,29,linear,38,hard_sigmoid,15.768035
47.302743,29,linear,39,hard_sigmoid,16.344220
56.606511,29,linear,40,hard_sigmoid,16.585070
53.131599,29,linear,41,hard_sigmoid,16.485152
52.413957,29,linear,42,hard_sigmoid,16.672127
53.542673,29,linear,43,hard_sigmoid,17.467516
51.912645,29,linear,44,hard_sigmoid,16.927952
53.532014,29,linear,45,hard_sigmoid,16.844458
53.610616,29,linear,46,hard_sigmoid,16.729630
52.720662,29,linear,47,hard_sigmoid,16.409955
47.369478,29,linear,48,hard_sigmoid,16.203972
54.301022,29,linear,49,hard_sigmoid,16.278727
55.136014,29,linear,50,hard_sigmoid,15.951033
48.004775,29,linear,51,hard_sigmoid,16.382806
54.303082,29,linear,52,hard_sigmoid,15.912776
47.912120,29,linear,53,hard_sigmoid,16.510415
54.130018,29,linear,54,hard_sigmoid,16.113797
52.696818,29,linear,55,hard_sigmoid,16.194196
54.366877,29,linear,56,hard_sigmoid,16.313440
54.780787,29,linear,57,hard_sigmoid,16.317319
49.487194,29,linear,58,hard_sigmoid,16.475169
52.234736,29,linear,59,hard_sigmoid,16.341889
54.396386,29,linear,60,hard_sigmoid,16.342658
53.896106,29,linear,61,hard_sigmoid,16.462091
53.829073,29,linear,62,hard_sigmoid,16.490237
55.826782,29,linear,63,hard_sigmoid,16.405445
55.596899,29,linear,64,hard_sigmoid,16.421903
54.403515,29,linear,65,hard_sigmoid,16.362782
46.313307,29,linear,66,hard_sigmoid,16.509223
54.634428,29,linear,67,hard_sigmoid,16.694779
50.749997,29,linear,68,hard_sigmoid,16.824696
49.813667,29,linear,69,hard_sigmoid,16.810311
47.130520,29,linear,70,hard_sigmoid,16.587192
48.185943,29,linear,71,hard_sigmoid,16.896738
54.204746,29,linear,72,hard_sigmoid,16.786125
52.712302,29,linear,73,hard_sigmoid,16.405044
46.786730,29,linear,74,hard_sigmoid,16.757198
52.491287,29,linear,75,hard_sigmoid,16.915905
49.506791,29,linear,76,hard_sigmoid,17.305996
54.889341,29,linear,77,hard_sigmoid,17.376284
53.649553,29,linear,78,hard_sigmoid,17.690543
48.322242,29,linear,79,hard_sigmoid,17.530431
49.724845,29,linear,80,hard_sigmoid,17.713710
53.358067,29,linear,81,hard_sigmoid,17.419147
52.300288,29,linear,82,hard_sigmoid,17.958773
53.333025,29,linear,83,hard_sigmoid,18.018203
56.295464,29,linear,84,hard_sigmoid,18.041458
53.787945,29,linear,85,hard_sigmoid,18.282731
53.108941,29,linear,86,hard_sigmoid,18.931725
54.824627,29,linear,87,hard_sigmoid,18.974268
53.187136,29,linear,88,hard_sigmoid,18.397350
55.018628,29,linear,89,hard_sigmoid,19.473379
53.199259,29,linear,90,hard_sigmoid,19.443418
56.625937,29,linear,91,hard_sigmoid,18.616886
45.975528,29,linear,92,hard_sigmoid,18.031091
48.940392,29,linear,93,hard_sigmoid,17.747299
52.054266,29,linear,94,hard_sigmoid,17.686872
55.185276,29,linear,95,hard_sigmoid,17.664291
46.205274,29,linear,96,hard_sigmoid,17.516387
55.582388,29,linear,97,hard_sigmoid,17.607240
49.407743,29,linear,98,hard_sigmoid,17.511061
54.687657,29,linear,99,hard_sigmoid,17.900624
55.692850,29,linear,100,hard_sigmoid,17.840705
53.859422,29,linear,101,hard_sigmoid,17.762775
51.429154,29,linear,102,hard_sigmoid,17.701760
53.707217,29,linear,103,hard_sigmoid,18.043966
54.576858,29,linear,104,hard_sigmoid,18.067146
54.222869,29,linear,105,hard_sigmoid,18.019330
51.824615,29,linear,106,hard_sigmoid,17.929833
50.614986,29,linear,107,hard_sigmoid,17.907482
50.474296,29,linear,108,hard_sigmoid,18.166507
55.148902,29,linear,109,hard_sigmoid,18.546057
51.860596,29,linear,110,hard_sigmoid,18.142665
53.622958,29,linear,111,hard_sigmoid,18.021157
46.555544,29,linear,112,hard_sigmoid,18.250213
52.550089,29,linear,113,hard_sigmoid,19.131067
55.512584,29,linear,114,hard_sigmoid,19.467005
51.368539,29,linear,115,hard_sigmoid,18.981758
49.711462,29,linear,116,hard_sigmoid,19.235719
55.262851,29,linear,117,hard_sigmoid,19.058004
51.941495,29,linear,118,hard_sigmoid,19.311973
52.683054,29,linear,119,hard_sigmoid,19.692349
55.257960,29,linear,120,hard_sigmoid,20.277165
49.391745,29,linear,121,hard_sigmoid,21.226920
54.090167,29,linear,122,hard_sigmoid,19.133652
54.633294,29,linear,123,hard_sigmoid,18.799706
53.629027,29,linear,124,hard_sigmoid,18.419365
54.204102,29,linear,125,hard_sigmoid,18.939344
50.901616,29,linear,126,hard_sigmoid,18.769952
57.326809,29,linear,127,hard_sigmoid,18.583986
53.054306,29,linear,128,hard_sigmoid,19.195843
54.678026,29,linear,129,hard_sigmoid,19.597865
54.089391,29,linear,130,hard_sigmoid,20.645110
54.197681,29,linear,131,hard_sigmoid,19.096746
52.691062,29,linear,132,hard_sigmoid,21.787922
46.953278,29,linear,133,hard_sigmoid,20.867077
56.914933,29,linear,134,hard_sigmoid,20.052375
56.265241,29,linear,135,hard_sigmoid,19.619130
47.928118,29,linear,136,hard_sigmoid,20.428689
49.483767,29,linear,137,hard_sigmoid,20.290761
51.265391,29,linear,138,hard_sigmoid,19.163272
47.960589,29,linear,139,hard_sigmoid,19.107085
45.292577,29,linear,140,hard_sigmoid,18.575422
54.843250,29,linear,141,hard_sigmoid,18.500673
54.171366,29,linear,142,hard_sigmoid,19.041272
55.808536,29,linear,143,hard_sigmoid,19.373237
54.691144,29,linear,144,hard_sigmoid,19.228831
55.053025,29,linear,145,hard_sigmoid,19.628962
53.153200,29,linear,146,hard_sigmoid,19.851552
56.069260,29,linear,147,hard_sigmoid,18.858483
49.088226,29,linear,148,hard_sigmoid,19.904282
54.673616,29,linear,149,hard_sigmoid,19.878349
53.338183,29,linear,150,hard_sigmoid,19.801310
52.546109,29,linear,151,hard_sigmoid,19.807100
53.893296,29,linear,152,hard_sigmoid,19.876710
54.385932,29,linear,153,hard_sigmoid,19.865926
51.954784,29,linear,154,hard_sigmoid,19.070675
46.869782,29,linear,155,hard_sigmoid,19.425294
55.328195,29,linear,156,hard_sigmoid,19.880849
49.337065,29,linear,157,hard_sigmoid,19.977591
55.611227,29,linear,158,hard_sigmoid,19.537133
55.082247,29,linear,159,hard_sigmoid,19.734163
55.105365,29,linear,160,hard_sigmoid,20.615100
51.876243,29,linear,161,hard_sigmoid,20.589768
53.650046,29,linear,162,hard_sigmoid,20.259247
55.484724,29,linear,163,hard_sigmoid,20.348053
52.429724,29,linear,164,hard_sigmoid,18.918042
47.462974,29,linear,165,hard_sigmoid,18.734104
56.003105,29,linear,166,hard_sigmoid,19.000047
54.751551,29,linear,167,hard_sigmoid,19.072252
53.481303,29,linear,168,hard_sigmoid,19.141231
54.591579,29,linear,169,hard_sigmoid,19.229177
53.628025,29,linear,170,hard_sigmoid,19.097241
53.731192,29,linear,171,hard_sigmoid,19.156913
50.618871,29,linear,172,hard_sigmoid,19.078978
49.124841,29,linear,173,hard_sigmoid,19.045347
53.448824,29,linear,174,hard_sigmoid,19.261917
47.501951,29,linear,175,hard_sigmoid,19.366592
54.696662,29,linear,176,hard_sigmoid,19.247421
53.584260,29,linear,177,hard_sigmoid,19.463328
54.308806,29,linear,178,hard_sigmoid,20.211277
55.096395,29,linear,179,hard_sigmoid,20.516941
52.033171,29,linear,180,hard_sigmoid,20.309949
51.860130,29,linear,181,hard_sigmoid,20.779214
46.117129,29,linear,182,hard_sigmoid,20.650907
52.883148,29,linear,183,hard_sigmoid,21.203312
46.985989,29,linear,184,hard_sigmoid,21.948256
54.890373,29,linear,185,hard_sigmoid,20.218559
54.501842,29,linear,186,hard_sigmoid,20.162055
49.656004,29,linear,187,hard_sigmoid,20.555163
55.058632,29,linear,188,hard_sigmoid,19.913912
48.293276,29,linear,189,hard_sigmoid,21.497149
55.956563,29,linear,190,hard_sigmoid,21.509342
55.359823,29,linear,191,hard_sigmoid,22.172247
54.708770,29,linear,192,hard_sigmoid,21.094747
55.363940,29,linear,193,hard_sigmoid,20.453449
55.022111,29,linear,194,hard_sigmoid,20.138044
54.014832,29,linear,195,hard_sigmoid,20.883442
54.992940,29,linear,196,hard_sigmoid,21.963803
53.808355,29,linear,197,hard_sigmoid,21.804821
47.665955,29,linear,198,hard_sigmoid,22.089760
54.151588,29,linear,199,hard_sigmoid,22.520766
47.680265,29,linear,200,hard_sigmoid,22.326941
55.236714,29,linear,2,linear,14.787013
55.023181,29,linear,3,linear,14.591281
52.681990,29,linear,4,linear,14.224233
53.466063,29,linear,5,linear,14.483427
55.811464,29,linear,6,linear,14.539204
57.104820,29,linear,7,linear,15.130695
45.449241,29,linear,8,linear,14.277909
55.014256,29,linear,9,linear,13.174007
54.597335,29,linear,10,linear,12.956284
48.633378,29,linear,11,linear,13.114415
48.047018,29,linear,12,linear,13.211715
47.621479,29,linear,13,linear,13.586102
54.355445,29,linear,14,linear,13.153086
56.312268,29,linear,15,linear,13.999460
53.735819,29,linear,16,linear,13.735109
48.658899,29,linear,17,linear,13.670982
52.295978,29,linear,18,linear,14.165466
47.964584,29,linear,19,linear,13.470670
48.463918,29,linear,20,linear,14.180754
46.640555,29,linear,21,linear,14.360422
49.993553,29,linear,22,linear,13.934179
52.626762,29,linear,23,linear,13.432439
54.643469,29,linear,24,linear,13.913522
53.323289,29,linear,25,linear,14.688545
49.869913,29,linear,26,linear,15.243423
55.415720,29,linear,27,linear,14.746193
51.384366,29,linear,28,linear,14.920722
55.179324,29,linear,29,linear,14.511496
55.403032,29,linear,30,linear,14.369523
48.573209,29,linear,31,linear,14.343902
54.968916,29,linear,32,linear,14.338874
53.341408,29,linear,33,linear,14.588898
52.929067,29,linear,34,linear,15.201903
55.843737,29,linear,35,linear,14.309953
55.160602,29,linear,36,linear,15.127876
54.039421,29,linear,37,linear,15.387457
52.478036,29,linear,38,linear,14.716123
55.058537,29,linear,39,linear,14.451611
54.357790,29,linear,40,linear,15.119995
55.135313,29,linear,41,linear,14.147804
53.722470,29,linear,42,linear,15.295337
48.420186,29,linear,43,linear,14.342422
47.764879,29,linear,44,linear,14.096383
47.823136,29,linear,45,linear,14.583969
53.388812,29,linear,46,linear,15.466280
54.266842,29,linear,47,linear,14.713339
54.653526,29,linear,48,linear,15.624432
52.342626,29,linear,49,linear,14.073630
53.102987,29,linear,50,linear,14.475799
55.141920,29,linear,51,linear,14.754845
55.417630,29,linear,52,linear,15.221750
55.006293,29,linear,53,linear,14.114850
53.425033,29,linear,54,linear,14.282699
53.789007,29,linear,55,linear,14.365155
55.443467,29,linear,56,linear,14.280881
51.415383,29,linear,57,linear,15.057800
51.712747,29,linear,58,linear,16.369266
48.512012,29,linear,59,linear,17.244874
55.005313,29,linear,60,linear,14.790538
54.785359,29,linear,61,linear,16.407986
54.430682,29,linear,62,linear,16.875969
54.602523,29,linear,63,linear,17.223462
47.384532,29,linear,64,linear,15.815455
55.442360,29,linear,65,linear,17.158617
55.294854,29,linear,66,linear,15.013880
53.184762,29,linear,67,linear,14.561022
52.864563,29,linear,68,linear,14.575195
53.333085,29,linear,69,linear,14.605564
53.027844,29,linear,70,linear,14.499278
50.493212,29,linear,71,linear,14.804608
53.023105,29,linear,72,linear,14.831259
54.122699,29,linear,73,linear,14.797836
51.587894,29,linear,74,linear,14.813035
55.356885,29,linear,75,linear,14.617380
48.786286,29,linear,76,linear,14.932847
53.963592,29,linear,77,linear,14.581458
56.818042,29,linear,78,linear,15.103645
51.623549,29,linear,79,linear,14.982557
55.234027,29,linear,80,linear,14.891484
54.608776,29,linear,81,linear,15.078297
54.893022,29,linear,82,linear,14.930160
47.100183,29,linear,83,linear,15.253047
54.276767,29,linear,84,linear,14.825467
54.688289,29,linear,85,linear,15.059422
48.946991,29,linear,86,linear,15.007123
53.963366,29,linear,87,linear,15.157702
54.437595,29,linear,88,linear,15.272886
54.805846,29,linear,89,linear,15.109203
55.145786,29,linear,90,linear,15.137176
54.308730,29,linear,91,linear,15.190636
56.639227,29,linear,92,linear,15.014362
55.090043,29,linear,93,linear,15.348775
53.956533,29,linear,94,linear,15.303529
54.568815,29,linear,95,linear,15.113196
54.820216,29,linear,96,linear,15.103326
45.702249,29,linear,97,linear,15.351617
54.529241,29,linear,98,linear,15.623802
54.711658,29,linear,99,linear,15.387583
55.040861,29,linear,100,linear,15.707812
51.522674,29,linear,101,linear,15.404227
52.429664,29,linear,102,linear,15.767765
55.132500,29,linear,103,linear,15.621986
53.941426,29,linear,104,linear,16.474149
50.153944,29,linear,105,linear,17.468971
54.274539,29,linear,106,linear,14.758423
54.723420,29,linear,107,linear,11.444421
47.101550,29,linear,108,linear,10.683275
54.825394,29,linear,109,linear,10.669465
53.382989,29,linear,110,linear,9.901703
54.459199,29,linear,111,linear,9.291155
43.719216,29,linear,112,linear,9.500758
54.434803,29,linear,113,linear,9.388875
47.218871,29,linear,114,linear,8.724895
53.175336,29,linear,115,linear,9.082465
45.357807,29,linear,116,linear,9.394935
55.501554,29,linear,117,linear,9.876139
53.785879,29,linear,118,linear,9.300237
55.146926,29,linear,119,linear,9.474208
53.083290,29,linear,120,linear,9.586380
53.469376,29,linear,121,linear,9.546230
54.515277,29,linear,122,linear,9.418121
51.930090,29,linear,123,linear,9.702069
47.276165,29,linear,124,linear,9.446490
53.581172,29,linear,125,linear,9.561515
55.798009,29,linear,126,linear,9.916726
55.283408,29,linear,127,linear,10.581001
51.671770,29,linear,128,linear,11.222180
52.870592,29,linear,129,linear,10.109451
54.061405,29,linear,130,linear,10.349124
53.418302,29,linear,131,linear,10.399217
49.542363,29,linear,132,linear,10.064664
49.013088,29,linear,133,linear,10.727546
48.201391,29,linear,134,linear,10.825630
53.102710,29,linear,135,linear,11.824708
54.893180,29,linear,136,linear,10.254914
54.300851,29,linear,137,linear,10.453299
50.117919,29,linear,138,linear,10.379482
53.757098,29,linear,139,linear,10.538538
56.119298,29,linear,140,linear,10.477761
52.268160,29,linear,141,linear,10.236062
54.710913,29,linear,142,linear,10.032750
55.221321,29,linear,143,linear,9.961360
55.643543,29,linear,144,linear,10.042900
52.616669,29,linear,145,linear,10.191110
55.513765,29,linear,146,linear,10.373967
52.524294,29,linear,147,linear,10.700714
53.491777,29,linear,148,linear,10.494835
51.623975,29,linear,149,linear,9.700792
53.831081,29,linear,150,linear,8.601446
49.736888,29,linear,151,linear,8.703125
56.359476,29,linear,152,linear,8.698002
53.337656,29,linear,153,linear,8.742929
52.781081,29,linear,154,linear,8.718667
56.603384,29,linear,155,linear,9.118034
51.211212,29,linear,156,linear,8.648908
53.696718,29,linear,157,linear,8.657921
53.807489,29,linear,158,linear,8.707061
49.106237,29,linear,159,linear,8.801282
48.309008,29,linear,160,linear,8.775396
53.460022,29,linear,161,linear,8.947117
54.942744,29,linear,162,linear,8.927143
49.354131,29,linear,163,linear,9.024884
53.379705,29,linear,164,linear,9.492235
54.825036,29,linear,165,linear,9.314202
56.493923,29,linear,166,linear,9.224493
48.227815,29,linear,167,linear,9.029808
54.711387,29,linear,168,linear,8.986795
54.945029,29,linear,169,linear,9.153466
55.095070,29,linear,170,linear,9.362624
54.690328,29,linear,171,linear,9.254026
53.010079,29,linear,172,linear,10.983797
55.164324,29,linear,173,linear,11.094450
55.810934,29,linear,174,linear,9.357739
56.063731,29,linear,175,linear,9.435184
53.501688,29,linear,176,linear,9.462126
51.876698,29,linear,177,linear,9.742174
47.788376,29,linear,178,linear,9.609671
52.086337,29,linear,179,linear,9.356935
48.404427,29,linear,180,linear,9.521853
46.728480,29,linear,181,linear,9.471898
55.686296,29,linear,182,linear,9.712867
53.684776,29,linear,183,linear,9.312176
53.870529,29,linear,184,linear,9.845574
44.557108,29,linear,185,linear,9.348552
52.285487,29,linear,186,linear,9.560298
48.536000,29,linear,187,linear,9.910637
52.997697,29,linear,188,linear,9.573216
55.661438,29,linear,189,linear,9.630886
55.116606,29,linear,190,linear,9.512891
51.686316,29,linear,191,linear,9.884207
55.805875,29,linear,192,linear,9.772312
55.238423,29,linear,193,linear,9.658746
51.830692,29,linear,194,linear,9.818400
54.488962,29,linear,195,linear,9.923425
46.318856,29,linear,196,linear,8.893034
56.623011,29,linear,197,linear,8.393454
54.329410,29,linear,198,linear,8.518798
54.195027,29,linear,199,linear,8.293161
53.766982,29,linear,200,linear,7.811378
