54.250435,29,sigmoid,2,relu,15.458757
54.280783,29,sigmoid,3,relu,15.469464
55.349809,29,sigmoid,4,relu,15.564128
54.003036,29,sigmoid,5,relu,15.445051
48.721906,29,sigmoid,6,relu,16.285955
48.346443,29,sigmoid,7,relu,15.501512
52.853596,29,sigmoid,8,relu,15.149676
54.032725,29,sigmoid,9,relu,15.269433
53.290061,29,sigmoid,10,relu,15.299047
44.528463,29,sigmoid,11,relu,14.621806
52.484214,29,sigmoid,12,relu,15.888544
50.176930,29,sigmoid,13,relu,16.063455
47.648701,29,sigmoid,14,relu,14.912900
55.032043,29,sigmoid,15,relu,15.298467
56.486872,29,sigmoid,16,relu,17.298502
54.137513,29,sigmoid,17,relu,16.147296
55.372014,29,sigmoid,18,relu,15.671759
52.935651,29,sigmoid,19,relu,15.766392
56.030358,29,sigmoid,20,relu,15.720138
53.513170,29,sigmoid,21,relu,15.902103
54.652767,29,sigmoid,22,relu,15.723096
47.117251,29,sigmoid,23,relu,15.507393
56.981939,29,sigmoid,24,relu,15.593570
53.162800,29,sigmoid,25,relu,15.419589
55.574381,29,sigmoid,26,relu,15.125301
53.970133,29,sigmoid,27,relu,15.476880
55.359055,29,sigmoid,28,relu,15.262451
54.330173,29,sigmoid,29,relu,16.375726
49.003176,29,sigmoid,30,relu,16.213335
53.562493,29,sigmoid,31,relu,16.472833
53.256796,29,sigmoid,32,relu,16.005969
49.286621,29,sigmoid,33,relu,16.243039
53.836596,29,sigmoid,34,relu,15.675821
54.565909,29,sigmoid,35,relu,16.105715
54.876812,29,sigmoid,36,relu,15.798964
53.881904,29,sigmoid,37,relu,16.450248
48.605132,29,sigmoid,38,relu,17.113035
48.419489,29,sigmoid,39,relu,16.686344
54.640762,29,sigmoid,40,relu,16.178860
52.571902,29,sigmoid,41,relu,16.730804
49.053149,29,sigmoid,42,relu,17.302038
53.621499,29,sigmoid,43,relu,15.858730
55.342705,29,sigmoid,44,relu,16.510959
54.811328,29,sigmoid,45,relu,17.327373
56.153208,29,sigmoid,46,relu,17.250335
54.750193,29,sigmoid,47,relu,16.481729
56.423248,29,sigmoid,48,relu,15.942059
54.968735,29,sigmoid,49,relu,16.186454
52.060730,29,sigmoid,50,relu,17.530800
56.447555,29,sigmoid,51,relu,16.957862
56.311938,29,sigmoid,52,relu,16.037263
54.339321,29,sigmoid,53,relu,16.674370
51.056868,29,sigmoid,54,relu,17.476431
55.970040,29,sigmoid,55,relu,17.320145
55.389916,29,sigmoid,56,relu,17.043788
54.080859,29,sigmoid,57,relu,16.635902
46.991409,29,sigmoid,58,relu,17.030506
55.045089,29,sigmoid,59,relu,17.625124
46.925544,29,sigmoid,60,relu,17.143643
54.009658,29,sigmoid,61,relu,18.032087
57.339404,29,sigmoid,62,relu,17.079447
54.917792,29,sigmoid,63,relu,17.840279
53.700329,29,sigmoid,64,relu,17.420504
54.113042,29,sigmoid,65,relu,17.905343
54.488239,29,sigmoid,66,relu,17.698604
56.165049,29,sigmoid,67,relu,17.297060
56.615519,29,sigmoid,68,relu,17.140856
55.009263,29,sigmoid,69,relu,17.214284
54.699067,29,sigmoid,70,relu,17.102630
56.131876,29,sigmoid,71,relu,17.197765
53.519254,29,sigmoid,72,relu,17.053691
55.309923,29,sigmoid,73,relu,17.827441
52.403715,29,sigmoid,74,relu,17.011427
52.644774,29,sigmoid,75,relu,16.923214
54.810506,29,sigmoid,76,relu,16.941131
48.281298,29,sigmoid,77,relu,17.201688
55.054840,29,sigmoid,78,relu,17.372695
50.209103,29,sigmoid,79,relu,17.424124
55.412625,29,sigmoid,80,relu,17.095480
54.642806,29,sigmoid,81,relu,17.250664
56.357434,29,sigmoid,82,relu,16.999018
56.045366,29,sigmoid,83,relu,16.984318
55.084766,29,sigmoid,84,relu,16.937066
53.997989,29,sigmoid,85,relu,16.783738
47.020289,29,sigmoid,86,relu,17.683948
50.500121,29,sigmoid,87,relu,16.688484
56.935770,29,sigmoid,88,relu,16.733879
53.208174,29,sigmoid,89,relu,16.685770
54.455054,29,sigmoid,90,relu,16.577637
54.559611,29,sigmoid,91,relu,16.667661
53.840191,29,sigmoid,92,relu,16.690583
54.793115,29,sigmoid,93,relu,16.913559
56.445807,29,sigmoid,94,relu,16.889289
54.009650,29,sigmoid,95,relu,16.783400
56.788923,29,sigmoid,96,relu,16.526829
50.970603,29,sigmoid,97,relu,16.767363
47.307323,29,sigmoid,98,relu,16.751485
54.100205,29,sigmoid,99,relu,16.889378
47.667428,29,sigmoid,100,relu,16.825004
50.050613,29,sigmoid,101,relu,16.678227
54.705779,29,sigmoid,102,relu,16.974446
53.820134,29,sigmoid,103,relu,17.020446
56.674733,29,sigmoid,104,relu,16.995365
54.954395,29,sigmoid,105,relu,17.083606
46.011155,29,sigmoid,106,relu,17.129024
55.992326,29,sigmoid,107,relu,16.997466
53.395015,29,sigmoid,108,relu,16.995590
53.938115,29,sigmoid,109,relu,17.187667
50.154910,29,sigmoid,110,relu,17.024885
55.634445,29,sigmoid,111,relu,17.272147
56.453498,29,sigmoid,112,relu,17.428002
48.750047,29,sigmoid,113,relu,17.576585
53.783146,29,sigmoid,114,relu,17.487416
51.664737,29,sigmoid,115,relu,17.528261
55.570188,29,sigmoid,116,relu,17.765420
52.708144,29,sigmoid,117,relu,17.611058
52.444105,29,sigmoid,118,relu,17.550413
55.937779,29,sigmoid,119,relu,17.487329
54.816044,29,sigmoid,120,relu,17.521228
54.216470,29,sigmoid,121,relu,17.708196
55.644615,29,sigmoid,122,relu,17.812450
49.339966,29,sigmoid,123,relu,17.729525
55.218599,29,sigmoid,124,relu,17.557382
50.936028,29,sigmoid,125,relu,17.845566
55.417245,29,sigmoid,126,relu,17.674064
56.392906,29,sigmoid,127,relu,17.771109
50.915945,29,sigmoid,128,relu,17.678837
46.967459,29,sigmoid,129,relu,17.467883
55.408257,29,sigmoid,130,relu,17.368304
52.017303,29,sigmoid,131,relu,17.224006
50.940256,29,sigmoid,132,relu,17.465550
54.847234,29,sigmoid,133,relu,17.321500
49.222304,29,sigmoid,134,relu,17.473890
54.924525,29,sigmoid,135,relu,17.379718
56.962533,29,sigmoid,136,relu,17.217410
54.620025,29,sigmoid,137,relu,17.431054
53.706513,29,sigmoid,138,relu,17.281874
54.929518,29,sigmoid,139,relu,17.374266
56.376044,29,sigmoid,140,relu,17.239678
54.433833,29,sigmoid,141,relu,17.300595
53.360699,29,sigmoid,142,relu,17.185315
54.860830,29,sigmoid,143,relu,17.081590
54.933593,29,sigmoid,144,relu,17.034536
46.238215,29,sigmoid,145,relu,17.026387
48.832736,29,sigmoid,146,relu,17.133009
54.427197,29,sigmoid,147,relu,17.125842
55.985977,29,sigmoid,148,relu,17.138860
53.774151,29,sigmoid,149,relu,17.086569
56.093507,29,sigmoid,150,relu,17.056389
54.402929,29,sigmoid,151,relu,17.161036
52.988097,29,sigmoid,152,relu,17.134881
55.663847,29,sigmoid,153,relu,17.413554
52.594452,29,sigmoid,154,relu,17.465508
55.268197,29,sigmoid,155,relu,17.562401
53.766262,29,sigmoid,156,relu,17.716042
54.587083,29,sigmoid,157,relu,17.533374
53.932882,29,sigmoid,158,relu,17.619843
54.799379,29,sigmoid,159,relu,17.601407
54.450910,29,sigmoid,160,relu,17.640005
53.172024,29,sigmoid,161,relu,17.587480
55.048233,29,sigmoid,162,relu,17.724148
47.085332,29,sigmoid,163,relu,17.851272
52.044311,29,sigmoid,164,relu,17.784829
57.283995,29,sigmoid,165,relu,17.817455
55.058284,29,sigmoid,166,relu,17.696990
55.210516,29,sigmoid,167,relu,17.672390
51.171005,29,sigmoid,168,relu,17.657157
55.384682,29,sigmoid,169,relu,17.547494
54.101901,29,sigmoid,170,relu,17.630784
54.971094,29,sigmoid,171,relu,17.811240
55.508527,29,sigmoid,172,relu,17.805786
53.226163,29,sigmoid,173,relu,17.784619
54.238905,29,sigmoid,174,relu,17.892648
57.127910,29,sigmoid,175,relu,17.766825
55.662114,29,sigmoid,176,relu,17.768388
56.243649,29,sigmoid,177,relu,17.779490
50.581945,29,sigmoid,178,relu,17.642936
54.500324,29,sigmoid,179,relu,17.834925
56.449560,29,sigmoid,180,relu,17.757458
56.720677,29,sigmoid,181,relu,18.092269
51.035056,29,sigmoid,182,relu,17.878083
56.164193,29,sigmoid,183,relu,18.063322
56.055533,29,sigmoid,184,relu,17.934343
53.122969,29,sigmoid,185,relu,17.966060
55.839435,29,sigmoid,186,relu,19.446171
56.936533,29,sigmoid,187,relu,19.055093
49.448972,29,sigmoid,188,relu,19.493650
52.486038,29,sigmoid,189,relu,19.587483
48.626067,29,sigmoid,190,relu,19.812937
47.120224,29,sigmoid,191,relu,19.959511
53.560527,29,sigmoid,192,relu,19.870091
48.770169,29,sigmoid,193,relu,20.140332
54.776488,29,sigmoid,194,relu,19.905504
56.531194,29,sigmoid,195,relu,19.983249
50.220692,29,sigmoid,196,relu,20.059495
55.571490,29,sigmoid,197,relu,20.051032
46.016697,29,sigmoid,198,relu,20.031571
53.233596,29,sigmoid,199,relu,20.000690
54.008615,29,sigmoid,200,relu,19.994678
48.055342,29,sigmoid,2,tanh,14.829797
55.814931,29,sigmoid,3,tanh,14.631698
48.286372,29,sigmoid,4,tanh,14.381580
54.472374,29,sigmoid,5,tanh,14.634816
53.688786,29,sigmoid,6,tanh,14.677777
53.328568,29,sigmoid,7,tanh,14.510393
52.069095,29,sigmoid,8,tanh,14.263287
47.127462,29,sigmoid,9,tanh,14.763862
53.000118,29,sigmoid,10,tanh,15.602819
48.198943,29,sigmoid,11,tanh,15.354855
47.166355,29,sigmoid,12,tanh,14.762201
55.272831,29,sigmoid,13,tanh,14.441333
48.050356,29,sigmoid,14,tanh,14.282729
56.519089,29,sigmoid,15,tanh,14.549945
53.645373,29,sigmoid,16,tanh,14.878000
55.263263,29,sigmoid,17,tanh,15.607356
54.199414,29,sigmoid,18,tanh,15.226468
50.172210,29,sigmoid,19,tanh,14.579958
49.257682,29,sigmoid,20,tanh,15.748684
51.848585,29,sigmoid,21,tanh,14.821964
53.257104,29,sigmoid,22,tanh,14.680253
54.765683,29,sigmoid,23,tanh,14.787134
55.880650,29,sigmoid,24,tanh,14.678501
49.064772,29,sigmoid,25,tanh,14.939685
53.997471,29,sigmoid,26,tanh,15.235772
54.543888,29,sigmoid,27,tanh,14.612601
53.331299,29,sigmoid,28,tanh,15.127439
54.913648,29,sigmoid,29,tanh,14.893271
53.743283,29,sigmoid,30,tanh,15.382071
49.716971,29,sigmoid,31,tanh,15.229082
54.522537,29,sigmoid,32,tanh,15.267544
46.610008,29,sigmoid,33,tanh,15.265719
54.255687,29,sigmoid,34,tanh,14.843561
51.289542,29,sigmoid,35,tanh,15.437930
55.268411,29,sigmoid,36,tanh,15.270943
49.424031,29,sigmoid,37,tanh,15.097458
49.127929,29,sigmoid,38,tanh,15.324163
51.697125,29,sigmoid,39,tanh,15.200237
54.160300,29,sigmoid,40,tanh,15.757852
55.366515,29,sigmoid,41,tanh,16.241384
56.484528,29,sigmoid,42,tanh,16.280948
52.480307,29,sigmoid,43,tanh,16.197617
49.783015,29,sigmoid,44,tanh,15.742315
55.473581,29,sigmoid,45,tanh,15.709828
54.851515,29,sigmoid,46,tanh,15.442783
55.776128,29,sigmoid,47,tanh,15.997439
45.863282,29,sigmoid,48,tanh,15.884184
55.908324,29,sigmoid,49,tanh,15.820886
49.781527,29,sigmoid,50,tanh,16.006275
53.342941,29,sigmoid,51,tanh,16.053326
55.090073,29,sigmoid,52,tanh,16.068925
49.244495,29,sigmoid,53,tanh,15.854223
52.019650,29,sigmoid,54,tanh,16.553303
53.732111,29,sigmoid,55,tanh,16.134525
55.046675,29,sigmoid,56,tanh,16.227584
54.193616,29,sigmoid,57,tanh,15.510998
54.127461,29,sigmoid,58,tanh,15.703821
53.875353,29,sigmoid,59,tanh,15.436321
51.234278,29,sigmoid,60,tanh,15.745074
52.141103,29,sigmoid,61,tanh,16.298321
53.848621,29,sigmoid,62,tanh,16.076928
55.045454,29,sigmoid,63,tanh,15.741948
54.919550,29,sigmoid,64,tanh,15.835005
54.658507,29,sigmoid,65,tanh,16.111461
47.857217,29,sigmoid,66,tanh,16.586510
52.730433,29,sigmoid,67,tanh,16.731264
51.190590,29,sigmoid,68,tanh,16.474640
53.126255,29,sigmoid,69,tanh,16.512613
54.137441,29,sigmoid,70,tanh,17.596241
55.075785,29,sigmoid,71,tanh,16.717607
52.830321,29,sigmoid,72,tanh,16.357342
56.252680,29,sigmoid,73,tanh,16.801214
49.061446,29,sigmoid,74,tanh,16.453820
55.971969,29,sigmoid,75,tanh,16.499088
50.285229,29,sigmoid,76,tanh,16.516464
55.773924,29,sigmoid,77,tanh,16.786962
55.770171,29,sigmoid,78,tanh,16.724136
47.393335,29,sigmoid,79,tanh,16.929651
48.502538,29,sigmoid,80,tanh,16.588074
49.749270,29,sigmoid,81,tanh,16.595912
55.393670,29,sigmoid,82,tanh,16.498192
55.069173,29,sigmoid,83,tanh,16.477607
54.133066,29,sigmoid,84,tanh,16.427363
55.082987,29,sigmoid,85,tanh,16.404397
55.423650,29,sigmoid,86,tanh,16.646182
48.952428,29,sigmoid,87,tanh,16.827553
46.799684,29,sigmoid,88,tanh,17.617045
53.472519,29,sigmoid,89,tanh,17.330431
56.095134,29,sigmoid,90,tanh,17.631522
54.498574,29,sigmoid,91,tanh,16.490156
54.420011,29,sigmoid,92,tanh,16.633819
52.470274,29,sigmoid,93,tanh,16.280685
53.641667,29,sigmoid,94,tanh,16.543452
48.279223,29,sigmoid,95,tanh,16.169177
47.982988,29,sigmoid,96,tanh,16.080514
53.346337,29,sigmoid,97,tanh,17.398440
56.537263,29,sigmoid,98,tanh,16.783540
45.442643,29,sigmoid,99,tanh,16.659149
54.721024,29,sigmoid,100,tanh,17.942009
48.422043,29,sigmoid,101,tanh,16.221742
56.655462,29,sigmoid,102,tanh,16.571909
55.083235,29,sigmoid,103,tanh,16.783160
51.649311,29,sigmoid,104,tanh,17.861871
53.467085,29,sigmoid,105,tanh,17.776379
51.050462,29,sigmoid,106,tanh,17.419364
56.318550,29,sigmoid,107,tanh,17.710007
57.851508,29,sigmoid,108,tanh,16.824045
52.897247,29,sigmoid,109,tanh,17.450747
52.568639,29,sigmoid,110,tanh,17.592602
52.497331,29,sigmoid,111,tanh,17.749769
54.695569,29,sigmoid,112,tanh,18.521041
57.392599,29,sigmoid,113,tanh,17.659216
55.186554,29,sigmoid,114,tanh,17.992214
58.450406,29,sigmoid,115,tanh,17.524213
57.907904,29,sigmoid,116,tanh,17.529612
51.703012,29,sigmoid,117,tanh,18.953580
58.620168,29,sigmoid,118,tanh,18.512944
51.983178,29,sigmoid,119,tanh,17.126318
44.646046,29,sigmoid,120,tanh,17.405106
60.682650,29,sigmoid,121,tanh,17.014372
55.432259,29,sigmoid,122,tanh,17.395149
54.286336,29,sigmoid,123,tanh,17.554270
55.183114,29,sigmoid,124,tanh,16.774257
54.882451,29,sigmoid,125,tanh,16.747918
47.744292,29,sigmoid,126,tanh,16.650486
57.127710,29,sigmoid,127,tanh,18.608065
55.451567,29,sigmoid,128,tanh,17.352773
55.948641,29,sigmoid,129,tanh,18.869799
62.251297,29,sigmoid,130,tanh,17.998609
61.004001,29,sigmoid,131,tanh,18.092818
66.620766,29,sigmoid,132,tanh,17.374854
61.067695,29,sigmoid,133,tanh,17.191941
63.497990,29,sigmoid,134,tanh,16.942653
58.925087,29,sigmoid,135,tanh,16.727766
54.956130,29,sigmoid,136,tanh,16.789330
66.991776,29,sigmoid,137,tanh,16.582907
75.136808,29,sigmoid,138,tanh,16.338648
55.103795,29,sigmoid,139,tanh,16.464746
62.457995,29,sigmoid,140,tanh,16.497767
75.329435,29,sigmoid,141,tanh,16.734386
54.611939,29,sigmoid,142,tanh,16.829582
66.212096,29,sigmoid,143,tanh,16.705735
74.226964,29,sigmoid,144,tanh,16.946123
63.022379,29,sigmoid,145,tanh,17.067494
81.336205,29,sigmoid,146,tanh,17.279131
60.143597,29,sigmoid,147,tanh,17.269102
67.054752,29,sigmoid,148,tanh,17.223580
56.202232,29,sigmoid,149,tanh,17.888622
108.714948,29,sigmoid,150,tanh,18.239946
79.671286,29,sigmoid,151,tanh,17.785438
60.483691,29,sigmoid,152,tanh,17.628003
54.973391,29,sigmoid,153,tanh,17.382083
79.282408,29,sigmoid,154,tanh,17.841083
102.966237,29,sigmoid,155,tanh,18.650349
73.372677,29,sigmoid,156,tanh,17.742664
86.650149,29,sigmoid,157,tanh,18.334637
91.165252,29,sigmoid,158,tanh,17.382338
56.184640,29,sigmoid,159,tanh,17.898456
79.449532,29,sigmoid,160,tanh,19.131632
100.020536,29,sigmoid,161,tanh,21.032827
80.521548,29,sigmoid,162,tanh,17.803606
55.774967,29,sigmoid,163,tanh,18.365060
140.586346,29,sigmoid,164,tanh,18.112360
127.237899,29,sigmoid,165,tanh,18.918720
104.685603,29,sigmoid,166,tanh,18.201952
63.242139,29,sigmoid,167,tanh,17.927970
76.760135,29,sigmoid,168,tanh,18.432452
54.579965,29,sigmoid,169,tanh,19.823375
82.082419,29,sigmoid,170,tanh,18.854098
53.202318,29,sigmoid,171,tanh,18.314926
49.751903,29,sigmoid,172,tanh,18.843795
173.122643,29,sigmoid,173,tanh,20.058497
64.275417,29,sigmoid,174,tanh,19.187018
155.651697,29,sigmoid,175,tanh,18.713855
169.440156,29,sigmoid,176,tanh,19.811191
111.289871,29,sigmoid,177,tanh,19.581355
56.061807,29,sigmoid,178,tanh,18.985984
162.385592,29,sigmoid,179,tanh,19.217564
197.254965,29,sigmoid,180,tanh,18.243950
96.862281,29,sigmoid,181,tanh,20.211245
221.586954,29,sigmoid,182,tanh,23.085196
89.362590,29,sigmoid,183,tanh,19.215138
217.105561,29,sigmoid,184,tanh,23.626885
93.255221,29,sigmoid,185,tanh,27.096603
55.745328,29,sigmoid,186,tanh,23.546377
244.896171,29,sigmoid,187,tanh,28.005290
316.832779,29,sigmoid,188,tanh,22.696474
195.650101,29,sigmoid,189,tanh,20.012719
224.727670,29,sigmoid,190,tanh,20.235865
165.447533,29,sigmoid,191,tanh,20.037750
260.765439,29,sigmoid,192,tanh,20.454114
234.902668,29,sigmoid,193,tanh,20.344418
281.967960,29,sigmoid,194,tanh,19.736050
81.645587,29,sigmoid,195,tanh,20.890440
117.711426,29,sigmoid,196,tanh,19.638226
62.106508,29,sigmoid,197,tanh,20.225726
170.726176,29,sigmoid,198,tanh,20.007456
312.901287,29,sigmoid,199,tanh,19.011976
292.481899,29,sigmoid,200,tanh,19.728106
54.024405,29,sigmoid,2,sigmoid,15.288303
47.805632,29,sigmoid,3,sigmoid,14.589080
50.006017,29,sigmoid,4,sigmoid,14.132219
53.997335,29,sigmoid,5,sigmoid,13.772203
53.263092,29,sigmoid,6,sigmoid,14.079487
53.174755,29,sigmoid,7,sigmoid,13.696928
53.875942,29,sigmoid,8,sigmoid,14.442731
52.787991,29,sigmoid,9,sigmoid,13.927027
54.171096,29,sigmoid,10,sigmoid,13.908581
47.625441,29,sigmoid,11,sigmoid,14.417585
54.688774,29,sigmoid,12,sigmoid,14.067188
49.215930,29,sigmoid,13,sigmoid,14.714807
55.052429,29,sigmoid,14,sigmoid,14.273786
49.496701,29,sigmoid,15,sigmoid,15.019281
54.943439,29,sigmoid,16,sigmoid,15.970563
52.913710,29,sigmoid,17,sigmoid,15.543061
54.053411,29,sigmoid,18,sigmoid,15.875526
51.861829,29,sigmoid,19,sigmoid,17.031455
54.878066,29,sigmoid,20,sigmoid,16.553050
56.134319,29,sigmoid,21,sigmoid,15.615812
56.119497,29,sigmoid,22,sigmoid,15.601001
52.362139,29,sigmoid,23,sigmoid,17.460723
50.021282,29,sigmoid,24,sigmoid,17.163105
53.128118,29,sigmoid,25,sigmoid,16.165412
54.275606,29,sigmoid,26,sigmoid,14.778281
55.659857,29,sigmoid,27,sigmoid,14.987864
50.860976,29,sigmoid,28,sigmoid,14.280947
46.381573,29,sigmoid,29,sigmoid,13.970162
52.412847,29,sigmoid,30,sigmoid,14.118810
55.713355,29,sigmoid,31,sigmoid,13.844704
53.082701,29,sigmoid,32,sigmoid,14.114780
54.469365,29,sigmoid,33,sigmoid,13.976552
56.812846,29,sigmoid,34,sigmoid,14.239940
51.778641,29,sigmoid,35,sigmoid,14.021064
49.564973,29,sigmoid,36,sigmoid,14.191995
51.424000,29,sigmoid,37,sigmoid,14.303408
55.922187,29,sigmoid,38,sigmoid,14.240189
49.422699,29,sigmoid,39,sigmoid,14.450355
54.419223,29,sigmoid,40,sigmoid,14.521804
48.666226,29,sigmoid,41,sigmoid,14.802243
45.426324,29,sigmoid,42,sigmoid,14.513568
55.302605,29,sigmoid,43,sigmoid,14.575644
54.069333,29,sigmoid,44,sigmoid,14.623229
52.616815,29,sigmoid,45,sigmoid,14.592339
53.447312,29,sigmoid,46,sigmoid,14.698172
55.989095,29,sigmoid,47,sigmoid,14.856582
54.998607,29,sigmoid,48,sigmoid,14.803851
54.762230,29,sigmoid,49,sigmoid,14.826585
54.617239,29,sigmoid,50,sigmoid,14.647430
54.772877,29,sigmoid,51,sigmoid,14.934647
52.688556,29,sigmoid,52,sigmoid,14.668850
47.616001,29,sigmoid,53,sigmoid,14.706466
54.936766,29,sigmoid,54,sigmoid,15.076290
53.559257,29,sigmoid,55,sigmoid,14.776018
48.973486,29,sigmoid,56,sigmoid,14.928261
55.070647,29,sigmoid,57,sigmoid,14.888267
56.457992,29,sigmoid,58,sigmoid,15.165055
56.324538,29,sigmoid,59,sigmoid,14.728133
54.996516,29,sigmoid,60,sigmoid,14.839715
54.177050,29,sigmoid,61,sigmoid,15.071579
50.130717,29,sigmoid,62,sigmoid,14.849803
52.753772,29,sigmoid,63,sigmoid,15.012847
53.523134,29,sigmoid,64,sigmoid,14.864857
55.294689,29,sigmoid,65,sigmoid,15.397574
54.874076,29,sigmoid,66,sigmoid,15.075824
53.415831,29,sigmoid,67,sigmoid,15.307606
55.262257,29,sigmoid,68,sigmoid,15.154325
54.938344,29,sigmoid,69,sigmoid,15.293067
54.329226,29,sigmoid,70,sigmoid,15.067526
54.734906,29,sigmoid,71,sigmoid,15.182600
51.259031,29,sigmoid,72,sigmoid,15.278030
56.877463,29,sigmoid,73,sigmoid,15.369109
53.794779,29,sigmoid,74,sigmoid,15.523719
53.269474,29,sigmoid,75,sigmoid,15.418894
54.889653,29,sigmoid,76,sigmoid,15.394364
53.011422,29,sigmoid,77,sigmoid,15.328153
54.736108,29,sigmoid,78,sigmoid,15.494417
52.250705,29,sigmoid,79,sigmoid,15.272977
54.750597,29,sigmoid,80,sigmoid,15.327926
50.124816,29,sigmoid,81,sigmoid,15.314968
54.421583,29,sigmoid,82,sigmoid,15.674618
52.062474,29,sigmoid,83,sigmoid,15.419432
52.928993,29,sigmoid,84,sigmoid,15.853607
52.987979,29,sigmoid,85,sigmoid,15.623622
47.930507,29,sigmoid,86,sigmoid,15.427515
54.355973,29,sigmoid,87,sigmoid,15.860334
49.147807,29,sigmoid,88,sigmoid,15.788827
51.905078,29,sigmoid,89,sigmoid,15.768142
49.762701,29,sigmoid,90,sigmoid,15.695306
47.673268,29,sigmoid,91,sigmoid,15.647134
54.500565,29,sigmoid,92,sigmoid,15.436417
53.387714,29,sigmoid,93,sigmoid,15.181862
54.125500,29,sigmoid,94,sigmoid,15.591346
55.699330,29,sigmoid,95,sigmoid,15.348501
54.894177,29,sigmoid,96,sigmoid,15.275154
54.443868,29,sigmoid,97,sigmoid,15.531470
48.754423,29,sigmoid,98,sigmoid,15.486394
53.145859,29,sigmoid,99,sigmoid,15.617118
53.110368,29,sigmoid,100,sigmoid,15.655129
45.227535,29,sigmoid,101,sigmoid,15.789738
52.526988,29,sigmoid,102,sigmoid,15.781419
55.337356,29,sigmoid,103,sigmoid,15.609840
54.439102,29,sigmoid,104,sigmoid,15.803342
55.803132,29,sigmoid,105,sigmoid,15.554844
52.437083,29,sigmoid,106,sigmoid,15.668688
53.140715,29,sigmoid,107,sigmoid,15.894673
47.876594,29,sigmoid,108,sigmoid,15.670863
49.074972,29,sigmoid,109,sigmoid,15.780486
48.103638,29,sigmoid,110,sigmoid,15.905418
52.567923,29,sigmoid,111,sigmoid,15.936065
53.867515,29,sigmoid,112,sigmoid,16.203742
49.532533,29,sigmoid,113,sigmoid,16.116054
53.413364,29,sigmoid,114,sigmoid,16.254375
53.791034,29,sigmoid,115,sigmoid,16.578928
48.588530,29,sigmoid,116,sigmoid,16.321921
50.934143,29,sigmoid,117,sigmoid,15.966451
53.391980,29,sigmoid,118,sigmoid,15.981135
53.149112,29,sigmoid,119,sigmoid,17.732447
52.855549,29,sigmoid,120,sigmoid,16.285761
48.161058,29,sigmoid,121,sigmoid,15.584190
54.327072,29,sigmoid,122,sigmoid,15.712786
49.044707,29,sigmoid,123,sigmoid,15.465779
54.326012,29,sigmoid,124,sigmoid,15.509302
49.483027,29,sigmoid,125,sigmoid,15.481299
48.337710,29,sigmoid,126,sigmoid,15.353327
53.913832,29,sigmoid,127,sigmoid,15.801227
53.198691,29,sigmoid,128,sigmoid,15.862413
54.490848,29,sigmoid,129,sigmoid,15.953625
46.931826,29,sigmoid,130,sigmoid,15.985250
52.362864,29,sigmoid,131,sigmoid,16.217053
55.589338,29,sigmoid,132,sigmoid,16.233585
47.501037,29,sigmoid,133,sigmoid,16.498090
48.411767,29,sigmoid,134,sigmoid,16.473952
54.170013,29,sigmoid,135,sigmoid,16.407614
53.794268,29,sigmoid,136,sigmoid,16.206492
55.233022,29,sigmoid,137,sigmoid,16.190151
54.263648,29,sigmoid,138,sigmoid,16.385940
55.153656,29,sigmoid,139,sigmoid,16.318923
52.339718,29,sigmoid,140,sigmoid,16.607890
51.457676,29,sigmoid,141,sigmoid,16.732416
56.812803,29,sigmoid,142,sigmoid,16.751867
55.578846,29,sigmoid,143,sigmoid,16.544245
55.754424,29,sigmoid,144,sigmoid,16.024458
47.231215,29,sigmoid,145,sigmoid,15.737584
48.018476,29,sigmoid,146,sigmoid,15.841692
50.082726,29,sigmoid,147,sigmoid,16.284173
56.490772,29,sigmoid,148,sigmoid,16.422836
45.458875,29,sigmoid,149,sigmoid,16.666812
53.907859,29,sigmoid,150,sigmoid,16.755954
54.715372,29,sigmoid,151,sigmoid,16.628116
55.525572,29,sigmoid,152,sigmoid,16.783267
54.183205,29,sigmoid,153,sigmoid,16.810745
46.282819,29,sigmoid,154,sigmoid,17.005554
54.406291,29,sigmoid,155,sigmoid,16.748599
51.527943,29,sigmoid,156,sigmoid,18.423058
50.044452,29,sigmoid,157,sigmoid,18.195039
54.044214,29,sigmoid,158,sigmoid,17.551697
48.094064,29,sigmoid,159,sigmoid,17.663509
54.106841,29,sigmoid,160,sigmoid,18.015280
54.458497,29,sigmoid,161,sigmoid,17.907422
47.276876,29,sigmoid,162,sigmoid,17.611265
47.471810,29,sigmoid,163,sigmoid,17.502496
54.495200,29,sigmoid,164,sigmoid,17.694392
52.124664,29,sigmoid,165,sigmoid,17.725094
54.839944,29,sigmoid,166,sigmoid,17.954381
52.835915,29,sigmoid,167,sigmoid,17.863933
54.247386,29,sigmoid,168,sigmoid,17.295951
54.503634,29,sigmoid,169,sigmoid,17.828192
53.878530,29,sigmoid,170,sigmoid,17.891652
52.480361,29,sigmoid,171,sigmoid,17.846862
47.431617,29,sigmoid,172,sigmoid,17.357224
51.495255,29,sigmoid,173,sigmoid,17.920965
56.043099,29,sigmoid,174,sigmoid,17.962257
52.475500,29,sigmoid,175,sigmoid,17.954492
53.079989,29,sigmoid,176,sigmoid,17.598714
55.014381,29,sigmoid,177,sigmoid,17.331092
53.707363,29,sigmoid,178,sigmoid,18.037948
55.853454,29,sigmoid,179,sigmoid,18.788776
54.236703,29,sigmoid,180,sigmoid,18.281876
47.690570,29,sigmoid,181,sigmoid,17.917949
53.999564,29,sigmoid,182,sigmoid,18.114800
56.721321,29,sigmoid,183,sigmoid,17.956260
55.794802,29,sigmoid,184,sigmoid,18.221791
55.642683,29,sigmoid,185,sigmoid,18.379306
49.225404,29,sigmoid,186,sigmoid,18.494172
52.702028,29,sigmoid,187,sigmoid,18.391300
53.199192,29,sigmoid,188,sigmoid,17.793602
54.990323,29,sigmoid,189,sigmoid,19.422291
55.640316,29,sigmoid,190,sigmoid,18.412875
54.110839,29,sigmoid,191,sigmoid,18.321434
55.594665,29,sigmoid,192,sigmoid,18.515784
52.937464,29,sigmoid,193,sigmoid,18.589555
46.122988,29,sigmoid,194,sigmoid,18.721823
53.451919,29,sigmoid,195,sigmoid,18.371650
47.611113,29,sigmoid,196,sigmoid,18.558710
50.887346,29,sigmoid,197,sigmoid,18.544539
49.725758,29,sigmoid,198,sigmoid,18.839159
53.645288,29,sigmoid,199,sigmoid,20.470513
52.320589,29,sigmoid,200,sigmoid,19.908437
56.562113,29,sigmoid,2,hard_sigmoid,16.668811
56.176024,29,sigmoid,3,hard_sigmoid,16.337526
48.986511,29,sigmoid,4,hard_sigmoid,15.663780
52.432094,29,sigmoid,5,hard_sigmoid,15.598538
52.850768,29,sigmoid,6,hard_sigmoid,16.110105
55.825885,29,sigmoid,7,hard_sigmoid,15.960438
50.322409,29,sigmoid,8,hard_sigmoid,15.703745
56.228187,29,sigmoid,9,hard_sigmoid,16.025209
53.998800,29,sigmoid,10,hard_sigmoid,16.044065
53.422413,29,sigmoid,11,hard_sigmoid,16.166680
53.033475,29,sigmoid,12,hard_sigmoid,16.225080
46.514743,29,sigmoid,13,hard_sigmoid,17.046631
55.061877,29,sigmoid,14,hard_sigmoid,16.100580
54.567344,29,sigmoid,15,hard_sigmoid,15.929252
52.932140,29,sigmoid,16,hard_sigmoid,16.231574
54.878810,29,sigmoid,17,hard_sigmoid,16.075163
52.817680,29,sigmoid,18,hard_sigmoid,16.025894
55.180023,29,sigmoid,19,hard_sigmoid,16.147607
56.835298,29,sigmoid,20,hard_sigmoid,16.431323
53.101422,29,sigmoid,21,hard_sigmoid,15.890957
54.920109,29,sigmoid,22,hard_sigmoid,16.136101
53.952343,29,sigmoid,23,hard_sigmoid,16.640916
47.782137,29,sigmoid,24,hard_sigmoid,16.251780
53.023156,29,sigmoid,25,hard_sigmoid,16.885740
52.758755,29,sigmoid,26,hard_sigmoid,16.433024
48.498224,29,sigmoid,27,hard_sigmoid,16.139414
53.861586,29,sigmoid,28,hard_sigmoid,16.231342
53.763210,29,sigmoid,29,hard_sigmoid,16.365281
55.907433,29,sigmoid,30,hard_sigmoid,16.391785
54.727594,29,sigmoid,31,hard_sigmoid,15.670961
46.350086,29,sigmoid,32,hard_sigmoid,15.966734
46.650652,29,sigmoid,33,hard_sigmoid,16.172041
56.543075,29,sigmoid,34,hard_sigmoid,16.263551
52.464499,29,sigmoid,35,hard_sigmoid,16.399062
54.380371,29,sigmoid,36,hard_sigmoid,16.157686
54.792173,29,sigmoid,37,hard_sigmoid,15.807346
48.180885,29,sigmoid,38,hard_sigmoid,15.730284
53.211397,29,sigmoid,39,hard_sigmoid,15.779800
53.375987,29,sigmoid,40,hard_sigmoid,15.732540
47.631864,29,sigmoid,41,hard_sigmoid,16.534840
56.351566,29,sigmoid,42,hard_sigmoid,16.293391
55.111903,29,sigmoid,43,hard_sigmoid,16.453304
54.905952,29,sigmoid,44,hard_sigmoid,16.467190
50.626984,29,sigmoid,45,hard_sigmoid,17.356766
52.848200,29,sigmoid,46,hard_sigmoid,16.637243
52.928761,29,sigmoid,47,hard_sigmoid,16.500061
48.165190,29,sigmoid,48,hard_sigmoid,16.490770
54.943619,29,sigmoid,49,hard_sigmoid,16.101368
52.654536,29,sigmoid,50,hard_sigmoid,16.301151
48.867317,29,sigmoid,51,hard_sigmoid,16.248730
49.176333,29,sigmoid,52,hard_sigmoid,15.842219
55.591400,29,sigmoid,53,hard_sigmoid,16.277985
54.408753,29,sigmoid,54,hard_sigmoid,15.916411
54.966971,29,sigmoid,55,hard_sigmoid,16.452391
50.956450,29,sigmoid,56,hard_sigmoid,16.142046
54.768589,29,sigmoid,57,hard_sigmoid,16.382969
48.437147,29,sigmoid,58,hard_sigmoid,16.147528
53.231283,29,sigmoid,59,hard_sigmoid,16.318934
46.342382,29,sigmoid,60,hard_sigmoid,16.403033
53.889082,29,sigmoid,61,hard_sigmoid,16.282361
54.435519,29,sigmoid,62,hard_sigmoid,16.434971
54.372817,29,sigmoid,63,hard_sigmoid,16.532851
54.077449,29,sigmoid,64,hard_sigmoid,16.315696
55.631357,29,sigmoid,65,hard_sigmoid,16.367378
54.931166,29,sigmoid,66,hard_sigmoid,16.423289
47.431649,29,sigmoid,67,hard_sigmoid,16.526847
55.054120,29,sigmoid,68,hard_sigmoid,16.484473
54.768121,29,sigmoid,69,hard_sigmoid,16.710927
51.743611,29,sigmoid,70,hard_sigmoid,16.836571
55.386704,29,sigmoid,71,hard_sigmoid,16.810837
54.350744,29,sigmoid,72,hard_sigmoid,16.536403
46.171133,29,sigmoid,73,hard_sigmoid,16.849625
55.753626,29,sigmoid,74,hard_sigmoid,16.471501
53.191529,29,sigmoid,75,hard_sigmoid,16.413509
49.817973,29,sigmoid,76,hard_sigmoid,16.865959
47.030529,29,sigmoid,77,hard_sigmoid,16.494164
53.723672,29,sigmoid,78,hard_sigmoid,17.388871
52.030485,29,sigmoid,79,hard_sigmoid,17.415849
53.236524,29,sigmoid,80,hard_sigmoid,17.506643
48.379921,29,sigmoid,81,hard_sigmoid,17.732688
53.910301,29,sigmoid,82,hard_sigmoid,17.754338
56.066134,29,sigmoid,83,hard_sigmoid,17.421243
56.225079,29,sigmoid,84,hard_sigmoid,17.836366
54.751476,29,sigmoid,85,hard_sigmoid,17.755828
44.236618,29,sigmoid,86,hard_sigmoid,17.907395
47.408967,29,sigmoid,87,hard_sigmoid,17.974175
54.608702,29,sigmoid,88,hard_sigmoid,19.175714
55.831296,29,sigmoid,89,hard_sigmoid,18.659955
53.090289,29,sigmoid,90,hard_sigmoid,17.936016
54.395636,29,sigmoid,91,hard_sigmoid,19.657038
53.357143,29,sigmoid,92,hard_sigmoid,19.617768
55.386376,29,sigmoid,93,hard_sigmoid,18.182712
47.946542,29,sigmoid,94,hard_sigmoid,17.880721
47.908973,29,sigmoid,95,hard_sigmoid,17.883161
54.403326,29,sigmoid,96,hard_sigmoid,17.788999
54.712303,29,sigmoid,97,hard_sigmoid,17.647601
54.566389,29,sigmoid,98,hard_sigmoid,17.483901
49.188364,29,sigmoid,99,hard_sigmoid,17.773878
56.925745,29,sigmoid,100,hard_sigmoid,17.819689
50.393171,29,sigmoid,101,hard_sigmoid,17.865451
51.059199,29,sigmoid,102,hard_sigmoid,17.603463
49.503543,29,sigmoid,103,hard_sigmoid,18.073664
53.755738,29,sigmoid,104,hard_sigmoid,17.871869
50.146356,29,sigmoid,105,hard_sigmoid,17.865326
48.745039,29,sigmoid,106,hard_sigmoid,18.002537
47.579367,29,sigmoid,107,hard_sigmoid,18.114383
53.842151,29,sigmoid,108,hard_sigmoid,17.820385
52.947294,29,sigmoid,109,hard_sigmoid,18.212710
47.781253,29,sigmoid,110,hard_sigmoid,18.140732
53.940097,29,sigmoid,111,hard_sigmoid,18.435458
56.274022,29,sigmoid,112,hard_sigmoid,18.188741
54.515106,29,sigmoid,113,hard_sigmoid,18.512751
55.451319,29,sigmoid,114,hard_sigmoid,18.614936
53.382186,29,sigmoid,115,hard_sigmoid,18.838038
49.296583,29,sigmoid,116,hard_sigmoid,19.413939
55.705933,29,sigmoid,117,hard_sigmoid,18.962950
46.230115,29,sigmoid,118,hard_sigmoid,19.025070
53.962230,29,sigmoid,119,hard_sigmoid,19.099622
56.148505,29,sigmoid,120,hard_sigmoid,19.077011
55.839886,29,sigmoid,121,hard_sigmoid,19.209340
52.824288,29,sigmoid,122,hard_sigmoid,19.564669
50.071819,29,sigmoid,123,hard_sigmoid,21.165631
52.148613,29,sigmoid,124,hard_sigmoid,19.109937
53.418513,29,sigmoid,125,hard_sigmoid,18.601613
54.301147,29,sigmoid,126,hard_sigmoid,18.542294
53.727011,29,sigmoid,127,hard_sigmoid,18.942115
54.754690,29,sigmoid,128,hard_sigmoid,18.597482
56.217454,29,sigmoid,129,hard_sigmoid,18.507155
52.023549,29,sigmoid,130,hard_sigmoid,19.147190
53.749606,29,sigmoid,131,hard_sigmoid,19.604796
53.808036,29,sigmoid,132,hard_sigmoid,20.498432
53.393563,29,sigmoid,133,hard_sigmoid,19.032327
54.716660,29,sigmoid,134,hard_sigmoid,21.878693
46.724837,29,sigmoid,135,hard_sigmoid,20.703423
55.380342,29,sigmoid,136,hard_sigmoid,19.974958
48.570526,29,sigmoid,137,hard_sigmoid,19.631445
50.253125,29,sigmoid,138,hard_sigmoid,20.310480
51.450305,29,sigmoid,139,hard_sigmoid,20.284379
53.679611,29,sigmoid,140,hard_sigmoid,19.042697
49.919122,29,sigmoid,141,hard_sigmoid,19.018007
54.706333,29,sigmoid,142,hard_sigmoid,18.520223
55.993230,29,sigmoid,143,hard_sigmoid,18.255563
54.958935,29,sigmoid,144,hard_sigmoid,18.566511
54.012489,29,sigmoid,145,hard_sigmoid,19.034063
53.421600,29,sigmoid,146,hard_sigmoid,18.844530
51.650886,29,sigmoid,147,hard_sigmoid,19.224946
52.878780,29,sigmoid,148,hard_sigmoid,19.588473
46.912184,29,sigmoid,149,hard_sigmoid,18.875834
52.850036,29,sigmoid,150,hard_sigmoid,19.829334
54.255833,29,sigmoid,151,hard_sigmoid,19.798469
54.166319,29,sigmoid,152,hard_sigmoid,19.725929
52.230154,29,sigmoid,153,hard_sigmoid,19.689431
54.946817,29,sigmoid,154,hard_sigmoid,19.840063
53.891746,29,sigmoid,155,hard_sigmoid,19.511068
46.927806,29,sigmoid,156,hard_sigmoid,19.127001
53.099133,29,sigmoid,157,hard_sigmoid,19.215976
54.859167,29,sigmoid,158,hard_sigmoid,19.283729
53.722284,29,sigmoid,159,hard_sigmoid,20.258978
55.082152,29,sigmoid,160,hard_sigmoid,19.496416
55.293245,29,sigmoid,161,hard_sigmoid,19.422764
46.089592,29,sigmoid,162,hard_sigmoid,20.725155
53.973926,29,sigmoid,163,hard_sigmoid,20.203368
50.372464,29,sigmoid,164,hard_sigmoid,20.032133
49.707542,29,sigmoid,165,hard_sigmoid,20.773557
54.855709,29,sigmoid,166,hard_sigmoid,19.035121
55.236468,29,sigmoid,167,hard_sigmoid,18.826361
54.737449,29,sigmoid,168,hard_sigmoid,18.609605
54.844937,29,sigmoid,169,hard_sigmoid,18.830569
53.793735,29,sigmoid,170,hard_sigmoid,18.992167
49.257770,29,sigmoid,171,hard_sigmoid,19.168746
54.679027,29,sigmoid,172,hard_sigmoid,19.072129
55.136346,29,sigmoid,173,hard_sigmoid,19.226211
54.609373,29,sigmoid,174,hard_sigmoid,19.116299
54.497922,29,sigmoid,175,hard_sigmoid,18.835488
47.926731,29,sigmoid,176,hard_sigmoid,19.010093
54.779391,29,sigmoid,177,hard_sigmoid,19.070075
54.066908,29,sigmoid,178,hard_sigmoid,19.073731
53.207942,29,sigmoid,179,hard_sigmoid,19.437716
48.043886,29,sigmoid,180,hard_sigmoid,20.080465
53.722810,29,sigmoid,181,hard_sigmoid,20.312854
57.204793,29,sigmoid,182,hard_sigmoid,20.183650
47.081658,29,sigmoid,183,hard_sigmoid,20.153932
48.709588,29,sigmoid,184,hard_sigmoid,20.487794
55.047478,29,sigmoid,185,hard_sigmoid,20.777144
49.801631,29,sigmoid,186,hard_sigmoid,22.353914
52.572756,29,sigmoid,187,hard_sigmoid,21.002703
53.987231,29,sigmoid,188,hard_sigmoid,19.931921
54.227160,29,sigmoid,189,hard_sigmoid,20.628319
53.587619,29,sigmoid,190,hard_sigmoid,20.182413
56.520488,29,sigmoid,191,hard_sigmoid,21.642136
47.875989,29,sigmoid,192,hard_sigmoid,21.437293
55.463730,29,sigmoid,193,hard_sigmoid,22.186252
51.800363,29,sigmoid,194,hard_sigmoid,21.313909
53.468024,29,sigmoid,195,hard_sigmoid,20.449802
53.929206,29,sigmoid,196,hard_sigmoid,20.386154
46.608998,29,sigmoid,197,hard_sigmoid,20.490564
53.622250,29,sigmoid,198,hard_sigmoid,22.473552
54.592004,29,sigmoid,199,hard_sigmoid,21.590665
55.287609,29,sigmoid,200,hard_sigmoid,22.089305
54.388688,29,sigmoid,2,linear,15.121750
48.513434,29,sigmoid,3,linear,15.462082
53.323053,29,sigmoid,4,linear,15.128348
55.152650,29,sigmoid,5,linear,15.018434
55.523294,29,sigmoid,6,linear,14.806855
53.226877,29,sigmoid,7,linear,14.281800
55.421593,29,sigmoid,8,linear,14.552347
52.362244,29,sigmoid,9,linear,14.670692
46.931069,29,sigmoid,10,linear,15.359299
52.924169,29,sigmoid,11,linear,14.796207
54.848243,29,sigmoid,12,linear,13.226648
47.755585,29,sigmoid,13,linear,12.863340
49.113571,29,sigmoid,14,linear,12.989260
50.755350,29,sigmoid,15,linear,13.520304
54.899560,29,sigmoid,16,linear,13.664502
54.630652,29,sigmoid,17,linear,13.305317
53.143739,29,sigmoid,18,linear,13.610337
53.438956,29,sigmoid,19,linear,14.206978
55.253800,29,sigmoid,20,linear,13.609406
53.729952,29,sigmoid,21,linear,13.894212
48.289703,29,sigmoid,22,linear,13.057548
56.769037,29,sigmoid,23,linear,13.634649
54.254622,29,sigmoid,24,linear,14.253203
54.727639,29,sigmoid,25,linear,14.334595
55.396100,29,sigmoid,26,linear,13.476024
54.900204,29,sigmoid,27,linear,13.829579
56.158439,29,sigmoid,28,linear,14.251014
55.092975,29,sigmoid,29,linear,15.605750
52.611043,29,sigmoid,30,linear,14.857967
54.817616,29,sigmoid,31,linear,14.843009
46.156717,29,sigmoid,32,linear,14.452147
52.956297,29,sigmoid,33,linear,14.419542
48.581666,29,sigmoid,34,linear,14.315290
55.414907,29,sigmoid,35,linear,14.150612
53.084506,29,sigmoid,36,linear,14.287140
54.641561,29,sigmoid,37,linear,14.916219
56.148619,29,sigmoid,38,linear,14.524755
47.133116,29,sigmoid,39,linear,14.429046
54.082392,29,sigmoid,40,linear,15.890210
52.922852,29,sigmoid,41,linear,14.852880
55.354172,29,sigmoid,42,linear,14.364151
49.515751,29,sigmoid,43,linear,14.921085
49.673117,29,sigmoid,44,linear,14.223415
55.715387,29,sigmoid,45,linear,15.173307
55.290674,29,sigmoid,46,linear,14.622607
55.099128,29,sigmoid,47,linear,14.393724
54.608174,29,sigmoid,48,linear,14.009148
53.501558,29,sigmoid,49,linear,15.778283
46.477314,29,sigmoid,50,linear,14.818086
56.132790,29,sigmoid,51,linear,15.532009
54.978805,29,sigmoid,52,linear,14.766723
54.668463,29,sigmoid,53,linear,14.709823
46.481410,29,sigmoid,54,linear,14.619940
52.475524,29,sigmoid,55,linear,15.580173
56.407514,29,sigmoid,56,linear,14.246352
46.600968,29,sigmoid,57,linear,14.441525
54.513572,29,sigmoid,58,linear,14.264995
53.405965,29,sigmoid,59,linear,14.399981
48.240640,29,sigmoid,60,linear,14.994805
47.959483,29,sigmoid,61,linear,16.243303
54.123112,29,sigmoid,62,linear,16.414344
56.169674,29,sigmoid,63,linear,15.558496
53.549115,29,sigmoid,64,linear,15.734913
52.199860,29,sigmoid,65,linear,17.360817
54.187828,29,sigmoid,66,linear,17.158700
54.383121,29,sigmoid,67,linear,16.350229
55.348743,29,sigmoid,68,linear,17.262136
54.200642,29,sigmoid,69,linear,15.344619
50.406505,29,sigmoid,70,linear,14.432078
53.921125,29,sigmoid,71,linear,15.015157
54.679018,29,sigmoid,72,linear,14.403604
54.721530,29,sigmoid,73,linear,14.867135
53.095195,29,sigmoid,74,linear,14.706009
52.925171,29,sigmoid,75,linear,15.198104
48.185662,29,sigmoid,76,linear,14.782933
53.016814,29,sigmoid,77,linear,14.845865
52.752291,29,sigmoid,78,linear,15.139254
55.104489,29,sigmoid,79,linear,14.674444
53.066743,29,sigmoid,80,linear,15.079446
53.279453,29,sigmoid,81,linear,15.221298
48.258182,29,sigmoid,82,linear,14.801485
50.144885,29,sigmoid,83,linear,15.035574
49.319716,29,sigmoid,84,linear,14.552362
51.730607,29,sigmoid,85,linear,15.151630
55.678714,29,sigmoid,86,linear,14.816882
56.047165,29,sigmoid,87,linear,15.090240
51.817907,29,sigmoid,88,linear,14.969607
47.235400,29,sigmoid,89,linear,15.021881
47.725852,29,sigmoid,90,linear,14.974716
53.439231,29,sigmoid,91,linear,15.062680
48.835264,29,sigmoid,92,linear,14.977874
53.645199,29,sigmoid,93,linear,14.963458
53.173522,29,sigmoid,94,linear,15.087538
53.612266,29,sigmoid,95,linear,15.106772
55.281361,29,sigmoid,96,linear,15.144280
54.351222,29,sigmoid,97,linear,15.322434
54.992141,29,sigmoid,98,linear,14.906752
52.535873,29,sigmoid,99,linear,15.254002
54.529395,29,sigmoid,100,linear,14.987802
55.663359,29,sigmoid,101,linear,15.677272
53.851533,29,sigmoid,102,linear,15.770931
52.270595,29,sigmoid,103,linear,15.519788
45.429810,29,sigmoid,104,linear,16.015626
53.235116,29,sigmoid,105,linear,15.558102
54.887009,29,sigmoid,106,linear,16.072357
53.794856,29,sigmoid,107,linear,16.620199
50.369942,29,sigmoid,108,linear,17.493638
53.631760,29,sigmoid,109,linear,15.547579
48.113463,29,sigmoid,110,linear,11.433415
52.068355,29,sigmoid,111,linear,10.792837
48.688922,29,sigmoid,112,linear,10.872300
49.856899,29,sigmoid,113,linear,10.119744
53.691922,29,sigmoid,114,linear,8.979401
48.335331,29,sigmoid,115,linear,9.293197
52.743929,29,sigmoid,116,linear,9.218835
53.853696,29,sigmoid,117,linear,9.657424
54.666982,29,sigmoid,118,linear,9.359677
49.901013,29,sigmoid,119,linear,9.249189
48.009065,29,sigmoid,120,linear,9.404739
52.469822,29,sigmoid,121,linear,9.092528
54.398840,29,sigmoid,122,linear,9.031428
51.273452,29,sigmoid,123,linear,9.508607
55.900613,29,sigmoid,124,linear,9.382983
51.929600,29,sigmoid,125,linear,9.311188
55.314808,29,sigmoid,126,linear,9.433627
49.755692,29,sigmoid,127,linear,9.465277
54.717400,29,sigmoid,128,linear,10.152064
53.610161,29,sigmoid,129,linear,10.097308
55.718584,29,sigmoid,130,linear,10.715396
54.269869,29,sigmoid,131,linear,11.060834
51.194751,29,sigmoid,132,linear,10.400121
53.094136,29,sigmoid,133,linear,9.906868
49.349758,29,sigmoid,134,linear,10.344712
47.927738,29,sigmoid,135,linear,10.176650
54.552384,29,sigmoid,136,linear,10.241947
52.369909,29,sigmoid,137,linear,10.054458
54.801275,29,sigmoid,138,linear,11.557329
55.783905,29,sigmoid,139,linear,10.961671
52.844617,29,sigmoid,140,linear,10.041157
53.424195,29,sigmoid,141,linear,9.975375
53.639834,29,sigmoid,142,linear,10.039170
51.454729,29,sigmoid,143,linear,9.670608
48.796952,29,sigmoid,144,linear,9.900619
55.680458,29,sigmoid,145,linear,10.034827
102.671493,29,sigmoid,146,linear,9.965393
53.308044,29,sigmoid,147,linear,10.078029
56.052697,29,sigmoid,148,linear,9.910259
51.714960,29,sigmoid,149,linear,9.941191
58.830479,29,sigmoid,150,linear,10.083798
345.720956,29,sigmoid,151,linear,9.858207
798.763663,29,sigmoid,152,linear,10.166766
202.716415,29,sigmoid,153,linear,8.919750
52.517443,29,sigmoid,154,linear,8.462178
53.620826,29,sigmoid,155,linear,8.415446
145.131697,29,sigmoid,156,linear,8.438820
268124.113263,29,sigmoid,157,linear,8.458409
56.745103,29,sigmoid,158,linear,8.591680
47.263721,29,sigmoid,159,linear,8.815445
54.013822,29,sigmoid,160,linear,8.427060
315.822066,29,sigmoid,161,linear,8.481543
56.748021,29,sigmoid,162,linear,8.541967
1785112.518004,29,sigmoid,163,linear,8.611972
210.164217,29,sigmoid,164,linear,8.601325
247.717595,29,sigmoid,165,linear,8.701487
44876710.938317,29,sigmoid,166,linear,8.824439
3666.160345,29,sigmoid,167,linear,9.000410
144307425.548764,29,sigmoid,168,linear,9.240821
54220.141351,29,sigmoid,169,linear,8.931975
55.722213,29,sigmoid,170,linear,8.970524
4353.804271,29,sigmoid,171,linear,8.786207
4850.325607,29,sigmoid,172,linear,8.983866
1430498044.380942,29,sigmoid,173,linear,8.776050
3199586.146373,29,sigmoid,174,linear,8.994960
64.399056,29,sigmoid,175,linear,8.994570
56.552161,29,sigmoid,176,linear,10.691898
57.933185,29,sigmoid,177,linear,11.386321
57.883873,29,sigmoid,178,linear,9.046812
179.161949,29,sigmoid,179,linear,9.320160
2820884.326647,29,sigmoid,180,linear,9.005420
10076921831.038364,29,sigmoid,181,linear,9.086546
62.804350,29,sigmoid,182,linear,9.146828
132165731974.955963,29,sigmoid,183,linear,9.160524
397401412.975854,29,sigmoid,184,linear,9.102742
169.971872,29,sigmoid,185,linear,9.387109
131.953799,29,sigmoid,186,linear,9.294486
36718.993382,29,sigmoid,187,linear,9.272309
225248258652.328613,29,sigmoid,188,linear,9.170907
26123.562411,29,sigmoid,189,linear,9.235492
2742524.694045,29,sigmoid,190,linear,9.290380
296204404267.394165,29,sigmoid,191,linear,9.346876
6435560872.065042,29,sigmoid,192,linear,9.501160
15309.627957,29,sigmoid,193,linear,9.166574
10913433.782311,29,sigmoid,194,linear,9.421141
3269161898563.096191,29,sigmoid,195,linear,9.412301
22125.990952,29,sigmoid,196,linear,9.656836
655.481940,29,sigmoid,197,linear,9.687989
13128466.776322,29,sigmoid,198,linear,9.352891
6759.751543,29,sigmoid,199,linear,9.475961
100871718.666633,29,sigmoid,200,linear,9.569017
